layer at (0,0) size 800x600
  RenderView at (0,0) size 800x600
layer at (0,0) size 800x600
  RenderSVGRoot {svg} at (25,15) size 750x487
    RenderSVGContainer {g} at (25,15) size 750x487
      RenderSVGViewportContainer {svg} at (25,15) size 750x487
        RenderSVGHiddenContainer {defs} at (0,0) size 0x0
          RenderSVGResourceLinearGradient {linearGradient} [id="MyGradient"] [gradientUnits=userSpaceOnUse] [start=(10,0)] [end=(590,0)]
            RenderSVGGradientStop {stop} [offset=0.00] [color=#00FF00]
            RenderSVGGradientStop {stop} [offset=1.00] [color=#000000]
          RenderSVGResourceFilter {filter} [id="Identity"] [filterUnits=objectBoundingBox] [primitiveUnits=userSpaceOnUse]
            [feComponentTransfer 
                {red: type="IDENTITY" slope="1.00" intercept="0.00" amplitude="1.00" exponent="1.00" offset="0.00"}
                {green: type="UNKNOWN" slope="0.00" intercept="0.00" amplitude="0.00" exponent="0.00" offset="0.00"}
                {blue: type="UNKNOWN" slope="0.00" intercept="0.00" amplitude="0.00" exponent="0.00" offset="0.00"}
                {alpha: type="UNKNOWN" slope="0.00" intercept="0.00" amplitude="0.00" exponent="0.00" offset="0.00"}]
              [SourceGraphic]
          RenderSVGResourceFilter {filter} [id="DiscreteBlank"] [filterUnits=objectBoundingBox] [primitiveUnits=userSpaceOnUse]
            [feComponentTransfer 
                {red: type="UNKNOWN" slope="0.00" intercept="0.00" amplitude="0.00" exponent="0.00" offset="0.00"}
                {green: type="DISCRETE" slope="1.00" intercept="0.00" amplitude="1.00" exponent="1.00" offset="0.00"}
                {blue: type="UNKNOWN" slope="0.00" intercept="0.00" amplitude="0.00" exponent="0.00" offset="0.00"}
                {alpha: type="UNKNOWN" slope="0.00" intercept="0.00" amplitude="0.00" exponent="0.00" offset="0.00"}]
              [SourceGraphic]
          RenderSVGResourceFilter {filter} [id="DiscreteFull"] [filterUnits=objectBoundingBox] [primitiveUnits=userSpaceOnUse]
            [feComponentTransfer 
                {red: type="UNKNOWN" slope="0.00" intercept="0.00" amplitude="0.00" exponent="0.00" offset="0.00"}
                {green: type="DISCRETE" slope="1.00" intercept="0.00" amplitude="1.00" exponent="1.00" offset="0.00"}
                {blue: type="UNKNOWN" slope="0.00" intercept="0.00" amplitude="0.00" exponent="0.00" offset="0.00"}
                {alpha: type="UNKNOWN" slope="0.00" intercept="0.00" amplitude="0.00" exponent="0.00" offset="0.00"}]
              [SourceGraphic]
          RenderSVGResourceFilter {filter} [id="DiscreteOrd"] [filterUnits=objectBoundingBox] [primitiveUnits=userSpaceOnUse]
            [feComponentTransfer 
                {red: type="UNKNOWN" slope="0.00" intercept="0.00" amplitude="0.00" exponent="0.00" offset="0.00"}
                {green: type="DISCRETE" slope="1.00" intercept="0.00" amplitude="1.00" exponent="1.00" offset="0.00"}
                {blue: type="UNKNOWN" slope="0.00" intercept="0.00" amplitude="0.00" exponent="0.00" offset="0.00"}
                {alpha: type="UNKNOWN" slope="0.00" intercept="0.00" amplitude="0.00" exponent="0.00" offset="0.00"}]
              [SourceGraphic]
        RenderSVGPath {rect} at (25,15) size 750x487 [stroke={[type=SOLID] [color=#0000FF]}] [x=1.00] [y=1.00] [width=648.00] [height=418.00]
        RenderSVGContainer {g} at (25,15) size 750x487
          RenderSVGPath {rect} at (25,15) size 750x487 [stroke={[type=SOLID] [color=#0000FF]}] [x=1.00] [y=1.00] [width=648.00] [height=418.00]
          RenderSVGPath {rect} at (46,26) size 673x49 [fill={[type=LINEAR-GRADIENT] [id="MyGradient"]}] [x=20.00] [y=10.00] [width=580.00] [height=40.00]
            [filter="Identity"] RenderSVGResourceFilter {filter} at (20,10) size 580x40
          RenderSVGText {text} at (20,55) size 103x19 contains 1 chunk(s)
            RenderSVGInlineText {#text} at (0,0) size 103x19
              chunk 1 text run 1 at (20.00,70.00) startOffset 0 endOffset 14 width 102.27: "type: identity"
          RenderSVGPath {rect} at (46,141) size 673x49 [fill={[type=LINEAR-GRADIENT] [id="MyGradient"]}] [x=20.00] [y=110.00] [width=580.00] [height=40.00]
            [filter="DiscreteBlank"] RenderSVGResourceFilter {filter} at (20,110) size 580x40
          RenderSVGText {text} at (20,155) size 326x19 contains 1 chunk(s)
            RenderSVGInlineText {#text} at (0,0) size 326x19
              chunk 1 text run 1 at (20.00,170.00) startOffset 0 endOffset 44 width 325.87: "type: discrete [0] -- Result should be black"
          RenderSVGPath {rect} at (46,258) size 673x47 [fill={[type=LINEAR-GRADIENT] [id="MyGradient"]}] [x=20.00] [y=210.00] [width=580.00] [height=40.00]
            [filter="DiscreteFull"] RenderSVGResourceFilter {filter} at (20,210) size 580x40
          RenderSVGText {text} at (20,255) size 330x19 contains 1 chunk(s)
            RenderSVGInlineText {#text} at (0,0) size 330x19
              chunk 1 text run 1 at (20.00,270.00) startOffset 0 endOffset 44 width 329.33: "type: discrete [1] -- Result should be green"
          RenderSVGPath {rect} at (46,373) size 673x47 [fill={[type=LINEAR-GRADIENT] [id="MyGradient"]}] [x=20.00] [y=310.00] [width=580.00] [height=40.00]
            [filter="DiscreteOrd"] RenderSVGResourceFilter {filter} at (20,310) size 580x40
          RenderSVGText {text} at (20,355) size 566x19 contains 1 chunk(s)
            RenderSVGInlineText {#text} at (0,0) size 566x19
              chunk 1 text run 1 at (20.00,370.00) startOffset 0 endOffset 75 width 565.07: "type: discrete [0.0 0.25 0.5 0.75 1] -- Result should be quantized gradient"
