layer at (0,0) size 784x1691
  RenderView at (0,0) size 784x600
layer at (0,0) size 784x1691
  RenderBlock {HTML} at (0,0) size 784x1691
    RenderBody {BODY} at (8,8) size 768x1675 [bgcolor=#CCCCCC]
      RenderBlock {P} at (0,0) size 768x22
        RenderText {#text} at (0,0) size 380x22
          text run at (0,0) width 380: "The style declarations which apply to the text below are:"
      RenderBlock {PRE} at (0,38) size 768x102
        RenderText {#text} at (0,0) size 314x102
          text run at (0,0) width 295: ".zero {background-color: silver; padding-bottom: 0;}"
          text run at (295,0) width 0: " "
          text run at (0,17) width 309: ".one {padding-bottom: 0.5in; background-color: aqua;}"
          text run at (309,17) width 0: " "
          text run at (0,34) width 308: ".two {padding-bottom: 25px; background-color: aqua;}"
          text run at (308,34) width 0: " "
          text run at (0,51) width 314: ".three {padding-bottom: 5em; background-color: aqua;}"
          text run at (314,51) width 0: " "
          text run at (0,68) width 308: ".four {padding-bottom: 25%; background-color: aqua;}"
          text run at (308,68) width 0: " "
          text run at (0,85) width 313: ".five {padding-bottom: -20px; background-color: aqua;}"
          text run at (313,85) width 0: " "
      RenderBlock {HR} at (0,153) size 768x2 [border: (1px inset #000000)]
      RenderBlock {P} at (0,171) size 768x22 [bgcolor=#C0C0C0]
        RenderText {#text} at (0,0) size 214x22
          text run at (0,0) width 214: "This element has a class of zero."
      RenderBlock {P} at (0,209) size 768x92 [bgcolor=#00FFFF]
        RenderText {#text} at (0,0) size 764x44
          text run at (0,0) width 706: "This element should have a bottom padding of half an inch, which will require extra text in order to test. "
          text run at (706,0) width 58: "Both the"
          text run at (0,22) width 440: "content background and the padding should be aqua (light blue)."
      RenderBlock {P} at (0,317) size 768x69 [bgcolor=#00FFFF]
        RenderText {#text} at (0,0) size 742x44
          text run at (0,0) width 684: "This element should have a bottom padding of 25 pixels, which will require extra text in order to test. "
          text run at (684,0) width 58: "Both the"
          text run at (0,22) width 440: "content background and the padding should be aqua (light blue)."
      RenderBlock {P} at (0,402) size 768x124 [bgcolor=#00FFFF]
        RenderText {#text} at (0,0) size 716x44
          text run at (0,0) width 658: "This element should have a bottom padding of 5 em, which will require extra text in order to test. "
          text run at (658,0) width 58: "Both the"
          text run at (0,22) width 440: "content background and the padding should be aqua (light blue)."
      RenderBlock {P} at (0,542) size 768x258 [bgcolor=#00FFFF]
        RenderText {#text} at (0,0) size 745x66
          text run at (0,0) width 745: "This element should have a bottom padding of 25%, which is calculated with respect to the width of the parent"
          text run at (0,22) width 60: "element. "
          text run at (60,22) width 291: "This will require extra text in order to test. "
          text run at (351,22) width 383: "Both the content background and the padding should be"
          text run at (0,44) width 115: "aqua (light blue)."
      RenderBlock {P} at (0,816) size 768x22 [bgcolor=#C0C0C0]
        RenderText {#text} at (0,0) size 214x22
          text run at (0,0) width 214: "This element has a class of zero."
      RenderBlock {P} at (0,854) size 768x44 [bgcolor=#00FFFF]
        RenderText {#text} at (0,0) size 739x44
          text run at (0,0) width 627: "This element should have no bottom padding, since negative padding values are not allowed. "
          text run at (627,0) width 112: "Both the content"
          text run at (0,22) width 439: "background and the normal padding should be aqua (light blue)."
      RenderTable {TABLE} at (0,914) size 768x761 [border: (1px outset #808080)]
        RenderTableSection {TBODY} at (1,1) size 766x759
          RenderTableRow {TR} at (0,0) size 766x30
            RenderTableCell {TD} at (0,0) size 766x30 [bgcolor=#C0C0C0] [border: (1px inset #808080)] [r=0 c=0 rs=1 cs=2]
              RenderInline {STRONG} at (0,0) size 163x22
                RenderText {#text} at (4,4) size 163x22
                  text run at (4,4) width 163: "TABLE Testing Section"
          RenderTableRow {TR} at (0,30) size 766x729
            RenderTableCell {TD} at (0,379) size 12x30 [bgcolor=#C0C0C0] [border: (1px inset #808080)] [r=1 c=0 rs=1 cs=1]
              RenderText {#text} at (4,4) size 4x22
                text run at (4,4) width 4: " "
            RenderTableCell {TD} at (12,30) size 754x729 [border: (1px inset #808080)] [r=1 c=1 rs=1 cs=1]
              RenderBlock {P} at (4,4) size 746x22 [bgcolor=#C0C0C0]
                RenderText {#text} at (0,0) size 214x22
                  text run at (0,0) width 214: "This element has a class of zero."
              RenderBlock {P} at (4,42) size 746x92 [bgcolor=#00FFFF]
                RenderText {#text} at (0,0) size 739x44
                  text run at (0,0) width 706: "This element should have a bottom padding of half an inch, which will require extra text in order to test. "
                  text run at (706,0) width 33: "Both"
                  text run at (0,22) width 465: "the content background and the padding should be aqua (light blue)."
              RenderBlock {P} at (4,150) size 746x69 [bgcolor=#00FFFF]
                RenderText {#text} at (0,0) size 742x44
                  text run at (0,0) width 684: "This element should have a bottom padding of 25 pixels, which will require extra text in order to test. "
                  text run at (684,0) width 58: "Both the"
                  text run at (0,22) width 440: "content background and the padding should be aqua (light blue)."
              RenderBlock {P} at (4,235) size 746x124 [bgcolor=#00FFFF]
                RenderText {#text} at (0,0) size 716x44
                  text run at (0,0) width 658: "This element should have a bottom padding of 5 em, which will require extra text in order to test. "
                  text run at (658,0) width 58: "Both the"
                  text run at (0,22) width 440: "content background and the padding should be aqua (light blue)."
              RenderBlock {P} at (4,375) size 746x252 [bgcolor=#00FFFF]
                RenderText {#text} at (0,0) size 745x66
                  text run at (0,0) width 745: "This element should have a bottom padding of 25%, which is calculated with respect to the width of the parent"
                  text run at (0,22) width 60: "element. "
                  text run at (60,22) width 291: "This will require extra text in order to test. "
                  text run at (351,22) width 383: "Both the content background and the padding should be"
                  text run at (0,44) width 115: "aqua (light blue)."
              RenderBlock {P} at (4,643) size 746x22 [bgcolor=#C0C0C0]
                RenderText {#text} at (0,0) size 214x22
                  text run at (0,0) width 214: "This element has a class of zero."
              RenderBlock {P} at (4,681) size 746x44 [bgcolor=#00FFFF]
                RenderText {#text} at (0,0) size 739x44
                  text run at (0,0) width 627: "This element should have no bottom padding, since negative padding values are not allowed. "
                  text run at (627,0) width 112: "Both the content"
                  text run at (0,22) width 439: "background and the normal padding should be aqua (light blue)."
