layer at (0,0) size 800x600
  RenderView at (0,0) size 800x600
layer at (0,0) size 800x600
  RenderSVGRoot {svg} at (51,68) size 698x304
    RenderSVGContainer {g} at (51,68) size 698x304
      RenderSVGText {text} at (240,41) size 209x12 contains 1 chunk(s)
        RenderSVGInlineText {#text} at (0,0) size 209x12
          chunk 1 text run 1 at (240.00,50.00) startOffset 0 endOffset 56 width 208.20 LTR override: "Text \"\x{5D0}\x{5E0}\x{5D9} \x{5D9}\x{5DB}\x{5D5}\x{5DC} \x{5DC}\x{5D0}\x{5DB}\x{5D5}\x{5DC} \x{5D6}\x{5DB}\x{5D5}\x{5DB}\x{5D9}\x{5EA} \x{5D5}\x{5D6}\x{5D4} \x{5DC}\x{5D0} \x{5DE}\x{5D6}\x{5D9}\x{5E7} \x{5DC}\x{5D9}\" is in Hebrew"
      RenderSVGText {text} at (135,71) size 210x12 contains 1 chunk(s)
        RenderSVGInlineText {#text} at (0,0) size 210x12
          chunk 1 (middle anchor) text run 1 at (135.90,80.00) startOffset 0 endOffset 56 width 208.20 LTR override: "Text \"\x{5D0}\x{5E0}\x{5D9} \x{5D9}\x{5DB}\x{5D5}\x{5DC} \x{5DC}\x{5D0}\x{5DB}\x{5D5}\x{5DC} \x{5D6}\x{5DB}\x{5D5}\x{5DB}\x{5D9}\x{5EA} \x{5D5}\x{5D6}\x{5D4} \x{5DC}\x{5D0} \x{5DE}\x{5D6}\x{5D9}\x{5E7} \x{5DC}\x{5D9}\" is in Hebrew"
      RenderSVGText {text} at (31,101) size 209x12 contains 1 chunk(s)
        RenderSVGInlineText {#text} at (0,0) size 209x12
          chunk 1 (end anchor) text run 1 at (31.80,110.00) startOffset 0 endOffset 56 width 208.20 LTR override: "Text \"\x{5D0}\x{5E0}\x{5D9} \x{5D9}\x{5DB}\x{5D5}\x{5DC} \x{5DC}\x{5D0}\x{5DB}\x{5D5}\x{5DC} \x{5D6}\x{5DB}\x{5D5}\x{5DB}\x{5D9}\x{5EA} \x{5D5}\x{5D6}\x{5D4} \x{5DC}\x{5D0} \x{5DE}\x{5D6}\x{5D9}\x{5E7} \x{5DC}\x{5D9}\" is in Hebrew"
      RenderSVGText {text} at (31,141) size 209x12 contains 1 chunk(s)
        RenderSVGInlineText {#text} at (0,0) size 209x12
          chunk 1 text run 1 at (31.80,150.00) startOffset 0 endOffset 56 width 208.20 RTL override: "Text \"\x{5D0}\x{5E0}\x{5D9} \x{5D9}\x{5DB}\x{5D5}\x{5DC} \x{5DC}\x{5D0}\x{5DB}\x{5D5}\x{5DC} \x{5D6}\x{5DB}\x{5D5}\x{5DB}\x{5D9}\x{5EA} \x{5D5}\x{5D6}\x{5D4} \x{5DC}\x{5D0} \x{5DE}\x{5D6}\x{5D9}\x{5E7} \x{5DC}\x{5D9}\" is in Hebrew"
      RenderSVGText {text} at (135,171) size 210x12 contains 1 chunk(s)
        RenderSVGInlineText {#text} at (0,0) size 210x12
          chunk 1 (middle anchor) text run 1 at (135.90,180.00) startOffset 0 endOffset 56 width 208.20 RTL override: "Text \"\x{5D0}\x{5E0}\x{5D9} \x{5D9}\x{5DB}\x{5D5}\x{5DC} \x{5DC}\x{5D0}\x{5DB}\x{5D5}\x{5DC} \x{5D6}\x{5DB}\x{5D5}\x{5DB}\x{5D9}\x{5EA} \x{5D5}\x{5D6}\x{5D4} \x{5DC}\x{5D0} \x{5DE}\x{5D6}\x{5D9}\x{5E7} \x{5DC}\x{5D9}\" is in Hebrew"
      RenderSVGText {text} at (240,211) size 209x12 contains 1 chunk(s)
        RenderSVGInlineText {#text} at (0,0) size 209x12
          chunk 1 (end anchor) text run 1 at (240.00,220.00) startOffset 0 endOffset 56 width 208.20 RTL override: "Text \"\x{5D0}\x{5E0}\x{5D9} \x{5D9}\x{5DB}\x{5D5}\x{5DC} \x{5DC}\x{5D0}\x{5DB}\x{5D5}\x{5DC} \x{5D6}\x{5DB}\x{5D5}\x{5DB}\x{5D9}\x{5EA} \x{5D5}\x{5D6}\x{5D4} \x{5DC}\x{5D0} \x{5DE}\x{5D6}\x{5D9}\x{5E7} \x{5DC}\x{5D9}\" is in Hebrew"
