layer at (0,0) size 480x360
  RenderView at (0,0) size 480x360
layer at (0,0) size 480x360
  RenderSVGRoot {svg} at (0,0) size 480x360
    RenderSVGText {text} at (10,304) size 284x45 contains 1 chunk(s)
      RenderSVGInlineText {#text} at (0,0) size 284x45
        chunk 1 text run 1 at (10.00,340.00) startOffset 0 endOffset 17 width 284.00: "$Revision: 1.10 $"
    RenderSVGPath {rect} at (0,0) size 480x360 [stroke={[type=SOLID] [color=#000000]}] [x=1.00] [y=1.00] [width=478.00] [height=358.00]
    RenderSVGText {text} at (205,7) size 70x23 contains 1 chunk(s)
      RenderSVGInlineText {#text} at (0,0) size 70x23
        chunk 1 (middle anchor) text run 1 at (205.50,25.00) startOffset 0 endOffset 8 width 69.00: "graphics"
    RenderSVGContainer {g} at (28,45) size 412x243 [transform={m=((1.00,0.00)(0.00,1.00)) t=(80.00,75.00)}]
      RenderSVGContainer {g} at (28,74) size 82x214 [transform={m=((1.00,0.00)(0.00,1.00)) t=(30.00,10.00)}]
        RenderSVGText {text} at (-13,-11) size 13x14 contains 1 chunk(s)
          RenderSVGInlineText {#text} at (0,0) size 13x14
            chunk 1 (end anchor) text run 1 at (-13.00,0.00) startOffset 0 endOffset 4 width 13.00: "fill"
        RenderSVGText {text} at (-35,9) size 35x14 contains 1 chunk(s)
          RenderSVGInlineText {#text} at (0,0) size 35x14
            chunk 1 (end anchor) text run 1 at (-35.00,20.00) startOffset 0 endOffset 9 width 35.00: "fill-rule"
        RenderSVGText {text} at (-29,29) size 29x14 contains 1 chunk(s)
          RenderSVGInlineText {#text} at (0,0) size 29x14
            chunk 1 (end anchor) text run 1 at (-29.00,40.00) startOffset 0 endOffset 6 width 29.00: "stroke"
        RenderSVGText {text} at (-60,49) size 60x14 contains 1 chunk(s)
          RenderSVGInlineText {#text} at (0,0) size 60x14
            chunk 1 (end anchor) text run 1 at (-60.00,60.00) startOffset 0 endOffset 12 width 60.00: "stroke-width"
        RenderSVGText {text} at (-66,69) size 66x14 contains 1 chunk(s)
          RenderSVGInlineText {#text} at (0,0) size 66x14
            chunk 1 (end anchor) text run 1 at (-66.00,80.00) startOffset 0 endOffset 14 width 66.00: "stroke-linecap"
        RenderSVGText {text} at (-68,89) size 68x14 contains 1 chunk(s)
          RenderSVGInlineText {#text} at (0,0) size 68x14
            chunk 1 (end anchor) text run 1 at (-68.00,100.00) startOffset 0 endOffset 15 width 68.00: "stroke-linejoin"
        RenderSVGText {text} at (-78,109) size 78x14 contains 1 chunk(s)
          RenderSVGInlineText {#text} at (0,0) size 78x14
            chunk 1 (end anchor) text run 1 at (-78.00,120.00) startOffset 0 endOffset 17 width 78.00: "stroke-miterlimit"
        RenderSVGText {text} at (-82,129) size 82x14 contains 1 chunk(s)
          RenderSVGInlineText {#text} at (0,0) size 82x14
            chunk 1 (end anchor) text run 1 at (-82.00,140.00) startOffset 0 endOffset 17 width 82.00: "stroke-dashoffset"
        RenderSVGText {text} at (-34,149) size 34x14 contains 1 chunk(s)
          RenderSVGInlineText {#text} at (0,0) size 34x14
            chunk 1 (end anchor) text run 1 at (-34.00,160.00) startOffset 0 endOffset 7 width 34.00: "display"
        RenderSVGText {text} at (-41,169) size 41x14 contains 1 chunk(s)
          RenderSVGInlineText {#text} at (0,0) size 41x14
            chunk 1 (end anchor) text run 1 at (-41.00,180.00) startOffset 0 endOffset 10 width 41.00: "visibility"
        RenderSVGText {text} at (-24,189) size 24x14 contains 1 chunk(s)
          RenderSVGInlineText {#text} at (0,0) size 24x14
            chunk 1 (end anchor) text run 1 at (-24.00,200.00) startOffset 0 endOffset 5 width 24.00: "color"
      RenderSVGContainer {g} at (171,45) size 245x17 [transform={m=((1.00,0.00)(0.00,1.00)) t=(90.00,-20.00)}]
        RenderSVGText {text} at (1,-10) size 38x17 contains 1 chunk(s)
          RenderSVGInlineText {#text} at (0,0) size 38x17
            chunk 1 (middle anchor) text run 1 at (1.50,3.00) startOffset 0 endOffset 6 width 37.00: "<text>"
        RenderSVGText {text} at (118,-10) size 24x17 contains 1 chunk(s)
          RenderSVGInlineText {#text} at (0,0) size 24x17
            chunk 1 (middle anchor) text run 1 at (118.50,3.00) startOffset 0 endOffset 3 width 23.00: "<g>"
        RenderSVGText {text} at (224,-10) size 22x17 contains 1 chunk(s)
          RenderSVGInlineText {#text} at (0,0) size 22x17
            chunk 1 (middle anchor) text run 1 at (224.00,3.00) startOffset 0 endOffset 3 width 22.00: "<a>"
      RenderSVGContainer {g} at (155,75) size 285x208 [transform={m=((1.00,0.00)(0.00,1.00)) t=(80.00,0.00)}]
        RenderSVGPath {rect} at (170,75) size 8x8 [fill={[type=SOLID] [color=#CCCCCC]}] [x=10.00] [y=0.00] [width=8.00] [height=8.00]
        RenderSVGContainer {g} at (170,75) size 258x8
          RenderSVGHiddenContainer {defs} at (0,0) size 0x0
            RenderSVGContainer {g} at (170,75) size 38x8
              RenderSVGPath {rect} at (170,75) size 8x8 [fill={[type=SOLID] [color=#CCCCCC]}] [x=10.00] [y=0.00] [width=8.00] [height=8.00]
              RenderSVGPath {rect} at (200,75) size 8x8 [transform={m=((1.00,0.00)(0.00,1.00)) t=(30.00,0.00)}] [fill={[type=SOLID] [color=#CCCCCC]}] [x=10.00] [y=0.00] [width=8.00] [height=8.00]
          RenderSVGContainer {use} at (170,75) size 38x8
            RenderSVGContainer {g} at (170,75) size 38x8
              RenderSVGContainer {g} at (170,75) size 38x8
                RenderSVGPath {rect} at (170,75) size 8x8 [fill={[type=SOLID] [color=#CCCCCC]}] [x=10.00] [y=0.00] [width=8.00] [height=8.00]
                RenderSVGPath {rect} at (200,75) size 8x8 [transform={m=((1.00,0.00)(0.00,1.00)) t=(30.00,0.00)}] [fill={[type=SOLID] [color=#CCCCCC]}] [x=10.00] [y=0.00] [width=8.00] [height=8.00]
          RenderSVGContainer {use} at (280,75) size 38x8
            RenderSVGContainer {g} at (280,75) size 38x8 [transform={m=((1.00,0.00)(0.00,1.00)) t=(110.00,0.00)}]
              RenderSVGContainer {g} at (280,75) size 38x8
                RenderSVGPath {rect} at (280,75) size 8x8 [fill={[type=SOLID] [color=#CCCCCC]}] [x=10.00] [y=0.00] [width=8.00] [height=8.00]
                RenderSVGPath {rect} at (310,75) size 8x8 [transform={m=((1.00,0.00)(0.00,1.00)) t=(30.00,0.00)}] [fill={[type=SOLID] [color=#CCCCCC]}] [x=10.00] [y=0.00] [width=8.00] [height=8.00]
          RenderSVGContainer {use} at (390,75) size 38x8
            RenderSVGContainer {g} at (390,75) size 38x8 [transform={m=((1.00,0.00)(0.00,1.00)) t=(220.00,0.00)}]
              RenderSVGContainer {g} at (390,75) size 38x8
                RenderSVGPath {rect} at (390,75) size 8x8 [fill={[type=SOLID] [color=#CCCCCC]}] [x=10.00] [y=0.00] [width=8.00] [height=8.00]
                RenderSVGPath {rect} at (420,75) size 8x8 [transform={m=((1.00,0.00)(0.00,1.00)) t=(30.00,0.00)}] [fill={[type=SOLID] [color=#CCCCCC]}] [x=10.00] [y=0.00] [width=8.00] [height=8.00]
          RenderSVGPath {rect} at (200,75) size 8x8 [transform={m=((1.00,0.00)(0.00,1.00)) t=(30.00,0.00)}] [fill={[type=SOLID] [color=#FFA500]}] [x=10.00] [y=0.00] [width=8.00] [height=8.00]
          RenderSVGContainer {g} at (310,75) size 8x8 [transform={m=((1.00,0.00)(0.00,1.00)) t=(110.00,0.00)}]
            RenderSVGPath {rect} at (310,75) size 8x8 [transform={m=((1.00,0.00)(0.00,1.00)) t=(30.00,0.00)}] [fill={[type=SOLID] [color=#FFA500]}] [x=10.00] [y=0.00] [width=8.00] [height=8.00]
          RenderSVGContainer {a} at (420,75) size 8x8 [transform={m=((1.00,0.00)(0.00,1.00)) t=(220.00,0.00)}]
            RenderSVGPath {rect} at (420,75) size 8x8 [transform={m=((1.00,0.00)(0.00,1.00)) t=(30.00,0.00)}] [fill={[type=SOLID] [color=#FFA500]}] [x=10.00] [y=0.00] [width=8.00] [height=8.00]
        RenderSVGContainer {g} at (163,90) size 273x22 [transform={m=((1.00,0.00)(0.00,1.00)) t=(5.00,15.00)}]
          RenderSVGHiddenContainer {defs} at (0,0) size 0x0
            RenderSVGContainer {g} at (163,90) size 53x22
              RenderSVGPath {polyline} at (163,90) size 23x22 [stroke={[type=SOLID] [color=#CCCCCC]}] [fill={[type=SOLID] [color=#CCCCCC]}] [points="20 10 0 10 15 20 10 2 5 20 20 10"]
              RenderSVGPath {polyline} at (193,90) size 23x22 [transform={m=((1.00,0.00)(0.00,1.00)) t=(30.00,0.00)}] [stroke={[type=SOLID] [color=#CCCCCC]}] [fill={[type=SOLID] [color=#CCCCCC] [fill rule=EVEN-ODD]}] [points="20 10 0 10 15 20 10 2 5 20 20 10"]
          RenderSVGContainer {use} at (163,90) size 53x22
            RenderSVGContainer {g} at (163,90) size 53x22
              RenderSVGContainer {g} at (163,90) size 53x22
                RenderSVGPath {polyline} at (163,90) size 23x22 [stroke={[type=SOLID] [color=#CCCCCC]}] [fill={[type=SOLID] [color=#CCCCCC]}] [points="20 10 0 10 15 20 10 2 5 20 20 10"]
                RenderSVGPath {polyline} at (193,90) size 23x22 [transform={m=((1.00,0.00)(0.00,1.00)) t=(30.00,0.00)}] [stroke={[type=SOLID] [color=#CCCCCC]}] [fill={[type=SOLID] [color=#CCCCCC] [fill rule=EVEN-ODD]}] [points="20 10 0 10 15 20 10 2 5 20 20 10"]
          RenderSVGContainer {use} at (273,90) size 53x22
            RenderSVGContainer {g} at (273,90) size 53x22 [transform={m=((1.00,0.00)(0.00,1.00)) t=(110.00,0.00)}]
              RenderSVGContainer {g} at (273,90) size 53x22
                RenderSVGPath {polyline} at (273,90) size 23x22 [stroke={[type=SOLID] [color=#CCCCCC]}] [fill={[type=SOLID] [color=#CCCCCC]}] [points="20 10 0 10 15 20 10 2 5 20 20 10"]
                RenderSVGPath {polyline} at (303,90) size 23x22 [transform={m=((1.00,0.00)(0.00,1.00)) t=(30.00,0.00)}] [stroke={[type=SOLID] [color=#CCCCCC]}] [fill={[type=SOLID] [color=#CCCCCC] [fill rule=EVEN-ODD]}] [points="20 10 0 10 15 20 10 2 5 20 20 10"]
          RenderSVGContainer {use} at (383,90) size 53x22
            RenderSVGContainer {g} at (383,90) size 53x22 [transform={m=((1.00,0.00)(0.00,1.00)) t=(220.00,0.00)}]
              RenderSVGContainer {g} at (383,90) size 53x22
                RenderSVGPath {polyline} at (383,90) size 23x22 [stroke={[type=SOLID] [color=#CCCCCC]}] [fill={[type=SOLID] [color=#CCCCCC]}] [points="20 10 0 10 15 20 10 2 5 20 20 10"]
                RenderSVGPath {polyline} at (413,90) size 23x22 [transform={m=((1.00,0.00)(0.00,1.00)) t=(30.00,0.00)}] [stroke={[type=SOLID] [color=#CCCCCC]}] [fill={[type=SOLID] [color=#CCCCCC] [fill rule=EVEN-ODD]}] [points="20 10 0 10 15 20 10 2 5 20 20 10"]
          RenderSVGPath {polyline} at (193,90) size 23x22 [transform={m=((1.00,0.00)(0.00,1.00)) t=(30.00,0.00)}] [stroke={[type=SOLID] [color=#CC0066]}] [fill={[type=SOLID] [color=#CC0066] [fill rule=EVEN-ODD]}] [points="20 10 0 10 15 20 10 2 5 20 20 10"]
          RenderSVGContainer {g} at (303,90) size 23x22 [transform={m=((1.00,0.00)(0.00,1.00)) t=(110.00,0.00)}]
            RenderSVGPath {polyline} at (303,90) size 23x22 [transform={m=((1.00,0.00)(0.00,1.00)) t=(30.00,0.00)}] [stroke={[type=SOLID] [color=#CC0066]}] [fill={[type=SOLID] [color=#CC0066] [fill rule=EVEN-ODD]}] [points="20 10 0 10 15 20 10 2 5 20 20 10"]
          RenderSVGContainer {a} at (413,90) size 23x22 [transform={m=((1.00,0.00)(0.00,1.00)) t=(220.00,0.00)}]
            RenderSVGPath {polyline} at (413,90) size 23x22 [transform={m=((1.00,0.00)(0.00,1.00)) t=(30.00,0.00)}] [stroke={[type=SOLID] [color=#CC0066]}] [fill={[type=SOLID] [color=#CC0066] [fill rule=EVEN-ODD]}] [points="20 10 0 10 15 20 10 2 5 20 20 10"]
        RenderSVGContainer {g} at (170,119) size 259x10 [transform={m=((1.00,0.00)(0.00,1.00)) t=(0.00,45.00)}]
          RenderSVGHiddenContainer {defs} at (0,0) size 0x0
            RenderSVGContainer {g} at (170,120) size 38x8
              RenderSVGPath {rect} at (170,120) size 8x8 [fill={[type=SOLID] [color=#CCCCCC]}] [x=10.00] [y=0.00] [width=8.00] [height=8.00]
              RenderSVGPath {rect} at (200,120) size 8x8 [transform={m=((1.00,0.00)(0.00,1.00)) t=(30.00,0.00)}] [fill={[type=SOLID] [color=#CCCCCC]}] [x=10.00] [y=0.00] [width=8.00] [height=8.00]
          RenderSVGContainer {use} at (170,120) size 38x8
            RenderSVGContainer {g} at (170,120) size 38x8
              RenderSVGContainer {g} at (170,120) size 38x8
                RenderSVGPath {rect} at (170,120) size 8x8 [fill={[type=SOLID] [color=#CCCCCC]}] [x=10.00] [y=0.00] [width=8.00] [height=8.00]
                RenderSVGPath {rect} at (200,120) size 8x8 [transform={m=((1.00,0.00)(0.00,1.00)) t=(30.00,0.00)}] [fill={[type=SOLID] [color=#CCCCCC]}] [x=10.00] [y=0.00] [width=8.00] [height=8.00]
          RenderSVGContainer {use} at (280,120) size 38x8
            RenderSVGContainer {g} at (280,120) size 38x8 [transform={m=((1.00,0.00)(0.00,1.00)) t=(110.00,0.00)}]
              RenderSVGContainer {g} at (280,120) size 38x8
                RenderSVGPath {rect} at (280,120) size 8x8 [fill={[type=SOLID] [color=#CCCCCC]}] [x=10.00] [y=0.00] [width=8.00] [height=8.00]
                RenderSVGPath {rect} at (310,120) size 8x8 [transform={m=((1.00,0.00)(0.00,1.00)) t=(30.00,0.00)}] [fill={[type=SOLID] [color=#CCCCCC]}] [x=10.00] [y=0.00] [width=8.00] [height=8.00]
          RenderSVGContainer {use} at (390,120) size 38x8
            RenderSVGContainer {g} at (390,120) size 38x8 [transform={m=((1.00,0.00)(0.00,1.00)) t=(220.00,0.00)}]
              RenderSVGContainer {g} at (390,120) size 38x8
                RenderSVGPath {rect} at (390,120) size 8x8 [fill={[type=SOLID] [color=#CCCCCC]}] [x=10.00] [y=0.00] [width=8.00] [height=8.00]
                RenderSVGPath {rect} at (420,120) size 8x8 [transform={m=((1.00,0.00)(0.00,1.00)) t=(30.00,0.00)}] [fill={[type=SOLID] [color=#CCCCCC]}] [x=10.00] [y=0.00] [width=8.00] [height=8.00]
          RenderSVGPath {rect} at (199,119) size 10x10 [transform={m=((1.00,0.00)(0.00,1.00)) t=(30.00,0.00)}] [stroke={[type=SOLID] [color=#CC0066]}] [x=10.00] [y=0.00] [width=8.00] [height=8.00]
          RenderSVGContainer {g} at (309,119) size 10x10 [transform={m=((1.00,0.00)(0.00,1.00)) t=(110.00,0.00)}]
            RenderSVGPath {rect} at (309,119) size 10x10 [transform={m=((1.00,0.00)(0.00,1.00)) t=(30.00,0.00)}] [stroke={[type=SOLID] [color=#CC0066]}] [x=10.00] [y=0.00] [width=8.00] [height=8.00]
          RenderSVGContainer {a} at (419,119) size 10x10 [transform={m=((1.00,0.00)(0.00,1.00)) t=(220.00,0.00)}]
            RenderSVGPath {rect} at (419,119) size 10x10 [transform={m=((1.00,0.00)(0.00,1.00)) t=(30.00,0.00)}] [stroke={[type=SOLID] [color=#CC0066]}] [x=10.00] [y=0.00] [width=8.00] [height=8.00]
        RenderSVGContainer {g} at (169,133) size 263x12 [transform={m=((1.00,0.00)(0.00,1.00)) t=(0.00,60.00)}]
          RenderSVGHiddenContainer {defs} at (0,0) size 0x0
            RenderSVGContainer {g} at (169,133) size 43x12
              RenderSVGPath {line} at (169,134) size 12x10 [stroke={[type=SOLID] [color=#CCCCCC]}] [fill={[type=SOLID] [color=#CC0066]}] [x1=10.00] [y1=8.00] [x2=20.00] [y2=0.00]
              RenderSVGPath {line} at (198,133) size 14x12 [transform={m=((1.00,0.00)(0.00,1.00)) t=(30.00,0.00)}] [stroke={[type=SOLID] [color=#CCCCCC] [stroke width=4.00]}] [fill={[type=SOLID] [color=#CC0066]}] [x1=10.00] [y1=8.00] [x2=20.00] [y2=0.00]
          RenderSVGContainer {use} at (169,133) size 43x12
            RenderSVGContainer {g} at (169,133) size 43x12
              RenderSVGContainer {g} at (169,133) size 43x12
                RenderSVGPath {line} at (169,134) size 12x10 [stroke={[type=SOLID] [color=#CCCCCC]}] [fill={[type=SOLID] [color=#CC0066]}] [x1=10.00] [y1=8.00] [x2=20.00] [y2=0.00]
                RenderSVGPath {line} at (198,133) size 14x12 [transform={m=((1.00,0.00)(0.00,1.00)) t=(30.00,0.00)}] [stroke={[type=SOLID] [color=#CCCCCC] [stroke width=4.00]}] [fill={[type=SOLID] [color=#CC0066]}] [x1=10.00] [y1=8.00] [x2=20.00] [y2=0.00]
          RenderSVGContainer {use} at (279,133) size 43x12
            RenderSVGContainer {g} at (279,133) size 43x12 [transform={m=((1.00,0.00)(0.00,1.00)) t=(110.00,0.00)}]
              RenderSVGContainer {g} at (279,133) size 43x12
                RenderSVGPath {line} at (279,134) size 12x10 [stroke={[type=SOLID] [color=#CCCCCC]}] [fill={[type=SOLID] [color=#CC0066]}] [x1=10.00] [y1=8.00] [x2=20.00] [y2=0.00]
                RenderSVGPath {line} at (308,133) size 14x12 [transform={m=((1.00,0.00)(0.00,1.00)) t=(30.00,0.00)}] [stroke={[type=SOLID] [color=#CCCCCC] [stroke width=4.00]}] [fill={[type=SOLID] [color=#CC0066]}] [x1=10.00] [y1=8.00] [x2=20.00] [y2=0.00]
          RenderSVGContainer {use} at (389,133) size 43x12
            RenderSVGContainer {g} at (389,133) size 43x12 [transform={m=((1.00,0.00)(0.00,1.00)) t=(220.00,0.00)}]
              RenderSVGContainer {g} at (389,133) size 43x12
                RenderSVGPath {line} at (389,134) size 12x10 [stroke={[type=SOLID] [color=#CCCCCC]}] [fill={[type=SOLID] [color=#CC0066]}] [x1=10.00] [y1=8.00] [x2=20.00] [y2=0.00]
                RenderSVGPath {line} at (418,133) size 14x12 [transform={m=((1.00,0.00)(0.00,1.00)) t=(30.00,0.00)}] [stroke={[type=SOLID] [color=#CCCCCC] [stroke width=4.00]}] [fill={[type=SOLID] [color=#CC0066]}] [x1=10.00] [y1=8.00] [x2=20.00] [y2=0.00]
          RenderSVGPath {line} at (198,133) size 14x12 [transform={m=((1.00,0.00)(0.00,1.00)) t=(30.00,0.00)}] [stroke={[type=SOLID] [color=#CC0066] [stroke width=4.00]}] [fill={[type=SOLID] [color=#CC0066]}] [x1=10.00] [y1=8.00] [x2=20.00] [y2=0.00]
          RenderSVGContainer {g} at (308,133) size 14x12 [transform={m=((1.00,0.00)(0.00,1.00)) t=(110.00,0.00)}]
            RenderSVGPath {line} at (308,133) size 14x12 [transform={m=((1.00,0.00)(0.00,1.00)) t=(30.00,0.00)}] [stroke={[type=SOLID] [color=#CC0066] [stroke width=4.00]}] [fill={[type=SOLID] [color=#CC0066]}] [x1=10.00] [y1=8.00] [x2=20.00] [y2=0.00]
          RenderSVGContainer {a} at (418,133) size 14x12 [transform={m=((1.00,0.00)(0.00,1.00)) t=(220.00,0.00)}]
            RenderSVGPath {line} at (418,133) size 14x12 [transform={m=((1.00,0.00)(0.00,1.00)) t=(30.00,0.00)}] [stroke={[type=SOLID] [color=#CC0066] [stroke width=4.00]}] [fill={[type=SOLID] [color=#CC0066]}] [x1=10.00] [y1=8.00] [x2=20.00] [y2=0.00]
        RenderSVGContainer {g} at (168,153) size 264x12 [transform={m=((1.00,0.00)(0.00,1.00)) t=(0.00,80.00)}]
          RenderSVGHiddenContainer {defs} at (0,0) size 0x0
            RenderSVGContainer {g} at (168,153) size 44x12
              RenderSVGPath {line} at (168,153) size 14x12 [stroke={[type=SOLID] [color=#CCCCCC] [stroke width=4.00]}] [fill={[type=SOLID] [color=#CC0066]}] [x1=10.00] [y1=8.00] [x2=20.00] [y2=0.00]
              RenderSVGPath {line} at (198,153) size 14x12 [transform={m=((1.00,0.00)(0.00,1.00)) t=(30.00,0.00)}] [stroke={[type=SOLID] [color=#CCCCCC] [stroke width=4.00] [line cap=ROUND]}] [fill={[type=SOLID] [color=#CC0066]}] [x1=10.00] [y1=8.00] [x2=20.00] [y2=0.00]
          RenderSVGContainer {use} at (168,153) size 44x12
            RenderSVGContainer {g} at (168,153) size 44x12
              RenderSVGContainer {g} at (168,153) size 44x12
                RenderSVGPath {line} at (168,153) size 14x12 [stroke={[type=SOLID] [color=#CCCCCC] [stroke width=4.00]}] [fill={[type=SOLID] [color=#CC0066]}] [x1=10.00] [y1=8.00] [x2=20.00] [y2=0.00]
                RenderSVGPath {line} at (198,153) size 14x12 [transform={m=((1.00,0.00)(0.00,1.00)) t=(30.00,0.00)}] [stroke={[type=SOLID] [color=#CCCCCC] [stroke width=4.00] [line cap=ROUND]}] [fill={[type=SOLID] [color=#CC0066]}] [x1=10.00] [y1=8.00] [x2=20.00] [y2=0.00]
          RenderSVGContainer {use} at (278,153) size 44x12
            RenderSVGContainer {g} at (278,153) size 44x12 [transform={m=((1.00,0.00)(0.00,1.00)) t=(110.00,0.00)}]
              RenderSVGContainer {g} at (278,153) size 44x12
                RenderSVGPath {line} at (278,153) size 14x12 [stroke={[type=SOLID] [color=#CCCCCC] [stroke width=4.00]}] [fill={[type=SOLID] [color=#CC0066]}] [x1=10.00] [y1=8.00] [x2=20.00] [y2=0.00]
                RenderSVGPath {line} at (308,153) size 14x12 [transform={m=((1.00,0.00)(0.00,1.00)) t=(30.00,0.00)}] [stroke={[type=SOLID] [color=#CCCCCC] [stroke width=4.00] [line cap=ROUND]}] [fill={[type=SOLID] [color=#CC0066]}] [x1=10.00] [y1=8.00] [x2=20.00] [y2=0.00]
          RenderSVGContainer {use} at (388,153) size 44x12
            RenderSVGContainer {g} at (388,153) size 44x12 [transform={m=((1.00,0.00)(0.00,1.00)) t=(220.00,0.00)}]
              RenderSVGContainer {g} at (388,153) size 44x12
                RenderSVGPath {line} at (388,153) size 14x12 [stroke={[type=SOLID] [color=#CCCCCC] [stroke width=4.00]}] [fill={[type=SOLID] [color=#CC0066]}] [x1=10.00] [y1=8.00] [x2=20.00] [y2=0.00]
                RenderSVGPath {line} at (418,153) size 14x12 [transform={m=((1.00,0.00)(0.00,1.00)) t=(30.00,0.00)}] [stroke={[type=SOLID] [color=#CCCCCC] [stroke width=4.00] [line cap=ROUND]}] [fill={[type=SOLID] [color=#CC0066]}] [x1=10.00] [y1=8.00] [x2=20.00] [y2=0.00]
          RenderSVGPath {line} at (198,153) size 14x12 [transform={m=((1.00,0.00)(0.00,1.00)) t=(30.00,0.00)}] [stroke={[type=SOLID] [color=#CC0066] [stroke width=4.00] [line cap=ROUND]}] [fill={[type=SOLID] [color=#CC0066]}] [x1=10.00] [y1=8.00] [x2=20.00] [y2=0.00]
          RenderSVGContainer {g} at (308,153) size 14x12 [transform={m=((1.00,0.00)(0.00,1.00)) t=(110.00,0.00)}]
            RenderSVGPath {line} at (308,153) size 14x12 [transform={m=((1.00,0.00)(0.00,1.00)) t=(30.00,0.00)}] [stroke={[type=SOLID] [color=#CC0066] [stroke width=4.00] [line cap=ROUND]}] [fill={[type=SOLID] [color=#CC0066]}] [x1=10.00] [y1=8.00] [x2=20.00] [y2=0.00]
          RenderSVGContainer {a} at (418,153) size 14x12 [transform={m=((1.00,0.00)(0.00,1.00)) t=(220.00,0.00)}]
            RenderSVGPath {line} at (418,153) size 14x12 [transform={m=((1.00,0.00)(0.00,1.00)) t=(30.00,0.00)}] [stroke={[type=SOLID] [color=#CC0066] [stroke width=4.00] [line cap=ROUND]}] [fill={[type=SOLID] [color=#CC0066]}] [x1=10.00] [y1=8.00] [x2=20.00] [y2=0.00]
        RenderSVGContainer {g} at (169,175) size 267x10 [transform={m=((1.00,0.00)(0.00,1.00)) t=(5.00,100.00)}]
          RenderSVGHiddenContainer {defs} at (0,0) size 0x0
            RenderSVGContainer {g} at (169,175) size 47x10
              RenderSVGPath {polyline} at (169,175) size 24x10 [stroke={[type=SOLID] [color=#CCCCCC] [stroke width=3.00] [miter limit=10.00]}] [points="5 2 20 5 5 8"]
              RenderSVGPath {polyline} at (199,175) size 17x10 [transform={m=((1.00,0.00)(0.00,1.00)) t=(30.00,0.00)}] [stroke={[type=SOLID] [color=#CCCCCC] [stroke width=3.00] [miter limit=10.00] [line join=BEVEL]}] [points="5 2 20 5 5 8"]
          RenderSVGContainer {use} at (169,175) size 47x10
            RenderSVGContainer {g} at (169,175) size 47x10
              RenderSVGContainer {g} at (169,175) size 47x10
                RenderSVGPath {polyline} at (169,175) size 24x10 [stroke={[type=SOLID] [color=#CCCCCC] [stroke width=3.00] [miter limit=10.00]}] [points="5 2 20 5 5 8"]
                RenderSVGPath {polyline} at (199,175) size 17x10 [transform={m=((1.00,0.00)(0.00,1.00)) t=(30.00,0.00)}] [stroke={[type=SOLID] [color=#CCCCCC] [stroke width=3.00] [miter limit=10.00] [line join=BEVEL]}] [points="5 2 20 5 5 8"]
          RenderSVGContainer {use} at (279,175) size 47x10
            RenderSVGContainer {g} at (279,175) size 47x10 [transform={m=((1.00,0.00)(0.00,1.00)) t=(110.00,0.00)}]
              RenderSVGContainer {g} at (279,175) size 47x10
                RenderSVGPath {polyline} at (279,175) size 24x10 [stroke={[type=SOLID] [color=#CCCCCC] [stroke width=3.00] [miter limit=10.00]}] [points="5 2 20 5 5 8"]
                RenderSVGPath {polyline} at (309,175) size 17x10 [transform={m=((1.00,0.00)(0.00,1.00)) t=(30.00,0.00)}] [stroke={[type=SOLID] [color=#CCCCCC] [stroke width=3.00] [miter limit=10.00] [line join=BEVEL]}] [points="5 2 20 5 5 8"]
          RenderSVGContainer {use} at (389,175) size 47x10
            RenderSVGContainer {g} at (389,175) size 47x10 [transform={m=((1.00,0.00)(0.00,1.00)) t=(220.00,0.00)}]
              RenderSVGContainer {g} at (389,175) size 47x10
                RenderSVGPath {polyline} at (389,175) size 24x10 [stroke={[type=SOLID] [color=#CCCCCC] [stroke width=3.00] [miter limit=10.00]}] [points="5 2 20 5 5 8"]
                RenderSVGPath {polyline} at (419,175) size 17x10 [transform={m=((1.00,0.00)(0.00,1.00)) t=(30.00,0.00)}] [stroke={[type=SOLID] [color=#CCCCCC] [stroke width=3.00] [miter limit=10.00] [line join=BEVEL]}] [points="5 2 20 5 5 8"]
          RenderSVGPath {polyline} at (199,175) size 17x10 [transform={m=((1.00,0.00)(0.00,1.00)) t=(30.00,0.00)}] [stroke={[type=SOLID] [color=#CC0066] [stroke width=3.00] [miter limit=10.00] [line join=BEVEL]}] [points="5 2 20 5 5 8"]
          RenderSVGContainer {g} at (309,175) size 17x10 [transform={m=((1.00,0.00)(0.00,1.00)) t=(110.00,0.00)}]
            RenderSVGPath {polyline} at (309,175) size 17x10 [transform={m=((1.00,0.00)(0.00,1.00)) t=(30.00,0.00)}] [stroke={[type=SOLID] [color=#CC0066] [stroke width=3.00] [miter limit=10.00] [line join=BEVEL]}] [points="5 2 20 5 5 8"]
          RenderSVGContainer {a} at (419,175) size 17x10 [transform={m=((1.00,0.00)(0.00,1.00)) t=(220.00,0.00)}]
            RenderSVGPath {polyline} at (419,175) size 17x10 [transform={m=((1.00,0.00)(0.00,1.00)) t=(30.00,0.00)}] [stroke={[type=SOLID] [color=#CC0066] [stroke width=3.00] [miter limit=10.00] [line join=BEVEL]}] [points="5 2 20 5 5 8"]
        RenderSVGContainer {g} at (169,193) size 271x14 [transform={m=((1.00,0.00)(0.00,1.00)) t=(5.00,120.00)}]
          RenderSVGHiddenContainer {defs} at (0,0) size 0x0
            RenderSVGContainer {g} at (169,193) size 51x14
              RenderSVGPath {polyline} at (169,193) size 17x14 [stroke={[type=SOLID] [color=#CCCCCC] [stroke width=3.00] [miter limit=1.00]}] [points="5 0 20 5 5 10"]
              RenderSVGPath {polyline} at (199,193) size 21x14 [transform={m=((1.00,0.00)(0.00,1.00)) t=(30.00,0.00)}] [stroke={[type=SOLID] [color=#CCCCCC] [stroke width=3.00] [miter limit=10.00]}] [points="5 0 20 5 5 10"]
          RenderSVGContainer {use} at (169,193) size 51x14
            RenderSVGContainer {g} at (169,193) size 51x14
              RenderSVGContainer {g} at (169,193) size 51x14
                RenderSVGPath {polyline} at (169,193) size 17x14 [stroke={[type=SOLID] [color=#CCCCCC] [stroke width=3.00] [miter limit=1.00]}] [points="5 0 20 5 5 10"]
                RenderSVGPath {polyline} at (199,193) size 21x14 [transform={m=((1.00,0.00)(0.00,1.00)) t=(30.00,0.00)}] [stroke={[type=SOLID] [color=#CCCCCC] [stroke width=3.00] [miter limit=10.00]}] [points="5 0 20 5 5 10"]
          RenderSVGContainer {use} at (279,193) size 51x14
            RenderSVGContainer {g} at (279,193) size 51x14 [transform={m=((1.00,0.00)(0.00,1.00)) t=(110.00,0.00)}]
              RenderSVGContainer {g} at (279,193) size 51x14
                RenderSVGPath {polyline} at (279,193) size 17x14 [stroke={[type=SOLID] [color=#CCCCCC] [stroke width=3.00] [miter limit=1.00]}] [points="5 0 20 5 5 10"]
                RenderSVGPath {polyline} at (309,193) size 21x14 [transform={m=((1.00,0.00)(0.00,1.00)) t=(30.00,0.00)}] [stroke={[type=SOLID] [color=#CCCCCC] [stroke width=3.00] [miter limit=10.00]}] [points="5 0 20 5 5 10"]
          RenderSVGContainer {use} at (389,193) size 51x14
            RenderSVGContainer {g} at (389,193) size 51x14 [transform={m=((1.00,0.00)(0.00,1.00)) t=(220.00,0.00)}]
              RenderSVGContainer {g} at (389,193) size 51x14
                RenderSVGPath {polyline} at (389,193) size 17x14 [stroke={[type=SOLID] [color=#CCCCCC] [stroke width=3.00] [miter limit=1.00]}] [points="5 0 20 5 5 10"]
                RenderSVGPath {polyline} at (419,193) size 21x14 [transform={m=((1.00,0.00)(0.00,1.00)) t=(30.00,0.00)}] [stroke={[type=SOLID] [color=#CCCCCC] [stroke width=3.00] [miter limit=10.00]}] [points="5 0 20 5 5 10"]
          RenderSVGPath {polyline} at (199,193) size 21x14 [transform={m=((1.00,0.00)(0.00,1.00)) t=(30.00,0.00)}] [stroke={[type=SOLID] [color=#CC0066] [stroke width=3.00] [miter limit=10.00]}] [points="5 0 20 5 5 10"]
          RenderSVGContainer {g} at (309,193) size 21x14 [transform={m=((1.00,0.00)(0.00,1.00)) t=(110.00,0.00)}]
            RenderSVGPath {polyline} at (309,193) size 21x14 [transform={m=((1.00,0.00)(0.00,1.00)) t=(30.00,0.00)}] [stroke={[type=SOLID] [color=#CC0066] [stroke width=3.00] [miter limit=10.00]}] [points="5 0 20 5 5 10"]
          RenderSVGContainer {a} at (419,193) size 21x14 [transform={m=((1.00,0.00)(0.00,1.00)) t=(220.00,0.00)}]
            RenderSVGPath {polyline} at (419,193) size 21x14 [transform={m=((1.00,0.00)(0.00,1.00)) t=(30.00,0.00)}] [stroke={[type=SOLID] [color=#CC0066] [stroke width=3.00] [miter limit=10.00]}] [points="5 0 20 5 5 10"]
        RenderSVGContainer {g} at (155,218) size 282x4 [transform={m=((1.00,0.00)(0.00,1.00)) t=(-5.00,145.00)}]
          RenderSVGHiddenContainer {defs} at (0,0) size 0x0
            RenderSVGContainer {g} at (155,218) size 62x4
              RenderSVGPath {line} at (155,218) size 25x4 [stroke={[type=SOLID] [color=#CCCCCC] [stroke width=3.00] [dash array={3.00, 4.00, 5.00}]}] [fill={[type=SOLID] [color=#CC0066]}] [x1=0.00] [y1=0.00] [x2=25.00] [y2=0.00]
              RenderSVGPath {line} at (196,218) size 21x4 [transform={m=((1.00,0.00)(0.00,1.00)) t=(40.00,0.00)}] [stroke={[type=SOLID] [color=#CCCCCC] [stroke width=3.00] [dash offset=5.50] [dash array={3.00, 4.00, 5.00}]}] [fill={[type=SOLID] [color=#CC0066]}] [x1=0.00] [y1=0.00] [x2=25.00] [y2=0.00]
          RenderSVGContainer {use} at (155,218) size 62x4
            RenderSVGContainer {g} at (155,218) size 62x4
              RenderSVGContainer {g} at (155,218) size 62x4
                RenderSVGPath {line} at (155,218) size 25x4 [stroke={[type=SOLID] [color=#CCCCCC] [stroke width=3.00] [dash array={3.00, 4.00, 5.00}]}] [fill={[type=SOLID] [color=#CC0066]}] [x1=0.00] [y1=0.00] [x2=25.00] [y2=0.00]
                RenderSVGPath {line} at (196,218) size 21x4 [transform={m=((1.00,0.00)(0.00,1.00)) t=(40.00,0.00)}] [stroke={[type=SOLID] [color=#CCCCCC] [stroke width=3.00] [dash offset=5.50] [dash array={3.00, 4.00, 5.00}]}] [fill={[type=SOLID] [color=#CC0066]}] [x1=0.00] [y1=0.00] [x2=25.00] [y2=0.00]
          RenderSVGContainer {use} at (265,218) size 62x4
            RenderSVGContainer {g} at (265,218) size 62x4 [transform={m=((1.00,0.00)(0.00,1.00)) t=(110.00,0.00)}]
              RenderSVGContainer {g} at (265,218) size 62x4
                RenderSVGPath {line} at (265,218) size 25x4 [stroke={[type=SOLID] [color=#CCCCCC] [stroke width=3.00] [dash array={3.00, 4.00, 5.00}]}] [fill={[type=SOLID] [color=#CC0066]}] [x1=0.00] [y1=0.00] [x2=25.00] [y2=0.00]
                RenderSVGPath {line} at (306,218) size 21x4 [transform={m=((1.00,0.00)(0.00,1.00)) t=(40.00,0.00)}] [stroke={[type=SOLID] [color=#CCCCCC] [stroke width=3.00] [dash offset=5.50] [dash array={3.00, 4.00, 5.00}]}] [fill={[type=SOLID] [color=#CC0066]}] [x1=0.00] [y1=0.00] [x2=25.00] [y2=0.00]
          RenderSVGContainer {use} at (375,218) size 62x4
            RenderSVGContainer {g} at (375,218) size 62x4 [transform={m=((1.00,0.00)(0.00,1.00)) t=(220.00,0.00)}]
              RenderSVGContainer {g} at (375,218) size 62x4
                RenderSVGPath {line} at (375,218) size 25x4 [stroke={[type=SOLID] [color=#CCCCCC] [stroke width=3.00] [dash array={3.00, 4.00, 5.00}]}] [fill={[type=SOLID] [color=#CC0066]}] [x1=0.00] [y1=0.00] [x2=25.00] [y2=0.00]
                RenderSVGPath {line} at (416,218) size 21x4 [transform={m=((1.00,0.00)(0.00,1.00)) t=(40.00,0.00)}] [stroke={[type=SOLID] [color=#CCCCCC] [stroke width=3.00] [dash offset=5.50] [dash array={3.00, 4.00, 5.00}]}] [fill={[type=SOLID] [color=#CC0066]}] [x1=0.00] [y1=0.00] [x2=25.00] [y2=0.00]
          RenderSVGPath {line} at (196,218) size 21x4 [transform={m=((1.00,0.00)(0.00,1.00)) t=(40.00,0.00)}] [stroke={[type=SOLID] [color=#CC0066] [stroke width=3.00] [dash offset=5.50] [dash array={3.00, 4.00, 5.00}]}] [fill={[type=SOLID] [color=#CC0066]}] [x1=0.00] [y1=0.00] [x2=25.00] [y2=0.00]
          RenderSVGContainer {g} at (306,218) size 21x4 [transform={m=((1.00,0.00)(0.00,1.00)) t=(110.00,0.00)}]
            RenderSVGPath {line} at (306,218) size 21x4 [transform={m=((1.00,0.00)(0.00,1.00)) t=(40.00,0.00)}] [stroke={[type=SOLID] [color=#CC0066] [stroke width=3.00] [dash offset=5.50] [dash array={3.00, 4.00, 5.00}]}] [fill={[type=SOLID] [color=#CC0066]}] [x1=0.00] [y1=0.00] [x2=25.00] [y2=0.00]
          RenderSVGContainer {a} at (416,218) size 21x4 [transform={m=((1.00,0.00)(0.00,1.00)) t=(220.00,0.00)}]
            RenderSVGPath {line} at (416,218) size 21x4 [transform={m=((1.00,0.00)(0.00,1.00)) t=(40.00,0.00)}] [stroke={[type=SOLID] [color=#CC0066] [stroke width=3.00] [dash offset=5.50] [dash array={3.00, 4.00, 5.00}]}] [fill={[type=SOLID] [color=#CC0066]}] [x1=0.00] [y1=0.00] [x2=25.00] [y2=0.00]
        RenderSVGContainer {g} at (170,235) size 258x8 [transform={m=((1.00,0.00)(0.00,1.00)) t=(0.00,160.00)}]
          RenderSVGHiddenContainer {defs} at (0,0) size 0x0
            RenderSVGContainer {g} at (170,235) size 38x8
              RenderSVGPath {rect} at (170,235) size 8x8 [fill={[type=SOLID] [color=#CCCCCC]}] [x=10.00] [y=0.00] [width=8.00] [height=8.00]
              RenderSVGPath {rect} at (200,235) size 8x8 [transform={m=((1.00,0.00)(0.00,1.00)) t=(30.00,0.00)}] [fill={[type=SOLID] [color=#CCCCCC]}] [x=10.00] [y=0.00] [width=8.00] [height=8.00]
          RenderSVGContainer {use} at (170,235) size 38x8
            RenderSVGContainer {g} at (170,235) size 38x8
              RenderSVGContainer {g} at (170,235) size 38x8
                RenderSVGPath {rect} at (170,235) size 8x8 [fill={[type=SOLID] [color=#CCCCCC]}] [x=10.00] [y=0.00] [width=8.00] [height=8.00]
                RenderSVGPath {rect} at (200,235) size 8x8 [transform={m=((1.00,0.00)(0.00,1.00)) t=(30.00,0.00)}] [fill={[type=SOLID] [color=#CCCCCC]}] [x=10.00] [y=0.00] [width=8.00] [height=8.00]
          RenderSVGContainer {use} at (280,235) size 38x8
            RenderSVGContainer {g} at (280,235) size 38x8 [transform={m=((1.00,0.00)(0.00,1.00)) t=(110.00,0.00)}]
              RenderSVGContainer {g} at (280,235) size 38x8
                RenderSVGPath {rect} at (280,235) size 8x8 [fill={[type=SOLID] [color=#CCCCCC]}] [x=10.00] [y=0.00] [width=8.00] [height=8.00]
                RenderSVGPath {rect} at (310,235) size 8x8 [transform={m=((1.00,0.00)(0.00,1.00)) t=(30.00,0.00)}] [fill={[type=SOLID] [color=#CCCCCC]}] [x=10.00] [y=0.00] [width=8.00] [height=8.00]
          RenderSVGContainer {use} at (390,235) size 38x8
            RenderSVGContainer {g} at (390,235) size 38x8 [transform={m=((1.00,0.00)(0.00,1.00)) t=(220.00,0.00)}]
              RenderSVGContainer {g} at (390,235) size 38x8
                RenderSVGPath {rect} at (390,235) size 8x8 [fill={[type=SOLID] [color=#CCCCCC]}] [x=10.00] [y=0.00] [width=8.00] [height=8.00]
                RenderSVGPath {rect} at (420,235) size 8x8 [transform={m=((1.00,0.00)(0.00,1.00)) t=(30.00,0.00)}] [fill={[type=SOLID] [color=#CCCCCC]}] [x=10.00] [y=0.00] [width=8.00] [height=8.00]
          RenderSVGHiddenContainer {g} at (0,0) size 0x0
            RenderSVGPath {rect} at (200,235) size 8x8 [transform={m=((1.00,0.00)(0.00,1.00)) t=(30.00,0.00)}] [fill={[type=SOLID] [color=#CC0066]}] [x=10.00] [y=0.00] [width=8.00] [height=8.00]
        RenderSVGContainer {g} at (170,255) size 258x8 [transform={m=((1.00,0.00)(0.00,1.00)) t=(0.00,180.00)}]
          RenderSVGHiddenContainer {defs} at (0,0) size 0x0
            RenderSVGContainer {g} at (170,255) size 38x8
              RenderSVGPath {rect} at (170,255) size 8x8 [fill={[type=SOLID] [color=#CCCCCC]}] [x=10.00] [y=0.00] [width=8.00] [height=8.00]
              RenderSVGPath {rect} at (200,255) size 8x8 [transform={m=((1.00,0.00)(0.00,1.00)) t=(30.00,0.00)}] [fill={[type=SOLID] [color=#CCCCCC]}] [x=10.00] [y=0.00] [width=8.00] [height=8.00]
          RenderSVGContainer {use} at (170,255) size 38x8
            RenderSVGContainer {g} at (170,255) size 38x8
              RenderSVGContainer {g} at (170,255) size 38x8
                RenderSVGPath {rect} at (170,255) size 8x8 [fill={[type=SOLID] [color=#CCCCCC]}] [x=10.00] [y=0.00] [width=8.00] [height=8.00]
                RenderSVGPath {rect} at (200,255) size 8x8 [transform={m=((1.00,0.00)(0.00,1.00)) t=(30.00,0.00)}] [fill={[type=SOLID] [color=#CCCCCC]}] [x=10.00] [y=0.00] [width=8.00] [height=8.00]
          RenderSVGContainer {use} at (280,255) size 38x8
            RenderSVGContainer {g} at (280,255) size 38x8 [transform={m=((1.00,0.00)(0.00,1.00)) t=(110.00,0.00)}]
              RenderSVGContainer {g} at (280,255) size 38x8
                RenderSVGPath {rect} at (280,255) size 8x8 [fill={[type=SOLID] [color=#CCCCCC]}] [x=10.00] [y=0.00] [width=8.00] [height=8.00]
                RenderSVGPath {rect} at (310,255) size 8x8 [transform={m=((1.00,0.00)(0.00,1.00)) t=(30.00,0.00)}] [fill={[type=SOLID] [color=#CCCCCC]}] [x=10.00] [y=0.00] [width=8.00] [height=8.00]
          RenderSVGContainer {use} at (390,255) size 38x8
            RenderSVGContainer {g} at (390,255) size 38x8 [transform={m=((1.00,0.00)(0.00,1.00)) t=(220.00,0.00)}]
              RenderSVGContainer {g} at (390,255) size 38x8
                RenderSVGPath {rect} at (390,255) size 8x8 [fill={[type=SOLID] [color=#CCCCCC]}] [x=10.00] [y=0.00] [width=8.00] [height=8.00]
                RenderSVGPath {rect} at (420,255) size 8x8 [transform={m=((1.00,0.00)(0.00,1.00)) t=(30.00,0.00)}] [fill={[type=SOLID] [color=#CCCCCC]}] [x=10.00] [y=0.00] [width=8.00] [height=8.00]
          RenderSVGPath {rect} at (200,255) size 8x8 [transform={m=((1.00,0.00)(0.00,1.00)) t=(30.00,0.00)}] [fill={[type=SOLID] [color=#CC0066]}] [x=10.00] [y=0.00] [width=8.00] [height=8.00]
          RenderSVGContainer {g} at (310,255) size 8x8 [transform={m=((1.00,0.00)(0.00,1.00)) t=(110.00,0.00)}]
            RenderSVGPath {rect} at (310,255) size 8x8 [transform={m=((1.00,0.00)(0.00,1.00)) t=(30.00,0.00)}] [fill={[type=SOLID] [color=#CC0066]}] [x=10.00] [y=0.00] [width=8.00] [height=8.00]
          RenderSVGContainer {a} at (420,255) size 8x8 [transform={m=((1.00,0.00)(0.00,1.00)) t=(220.00,0.00)}]
            RenderSVGPath {rect} at (420,255) size 8x8 [transform={m=((1.00,0.00)(0.00,1.00)) t=(30.00,0.00)}] [fill={[type=SOLID] [color=#CC0066]}] [x=10.00] [y=0.00] [width=8.00] [height=8.00]
        RenderSVGContainer {g} at (170,275) size 258x8 [transform={m=((1.00,0.00)(0.00,1.00)) t=(0.00,200.00)}]
          RenderSVGHiddenContainer {defs} at (0,0) size 0x0
            RenderSVGContainer {g} at (170,275) size 38x8
              RenderSVGPath {rect} at (170,275) size 8x8 [fill={[type=SOLID] [color=#CCCCCC]}] [x=10.00] [y=0.00] [width=8.00] [height=8.00]
              RenderSVGPath {rect} at (200,275) size 8x8 [transform={m=((1.00,0.00)(0.00,1.00)) t=(30.00,0.00)}] [fill={[type=SOLID] [color=#CCCCCC]}] [x=10.00] [y=0.00] [width=8.00] [height=8.00]
          RenderSVGContainer {use} at (170,275) size 38x8
            RenderSVGContainer {g} at (170,275) size 38x8
              RenderSVGContainer {g} at (170,275) size 38x8
                RenderSVGPath {rect} at (170,275) size 8x8 [fill={[type=SOLID] [color=#CCCCCC]}] [x=10.00] [y=0.00] [width=8.00] [height=8.00]
                RenderSVGPath {rect} at (200,275) size 8x8 [transform={m=((1.00,0.00)(0.00,1.00)) t=(30.00,0.00)}] [fill={[type=SOLID] [color=#CCCCCC]}] [x=10.00] [y=0.00] [width=8.00] [height=8.00]
          RenderSVGContainer {use} at (280,275) size 38x8
            RenderSVGContainer {g} at (280,275) size 38x8 [transform={m=((1.00,0.00)(0.00,1.00)) t=(110.00,0.00)}]
              RenderSVGContainer {g} at (280,275) size 38x8
                RenderSVGPath {rect} at (280,275) size 8x8 [fill={[type=SOLID] [color=#CCCCCC]}] [x=10.00] [y=0.00] [width=8.00] [height=8.00]
                RenderSVGPath {rect} at (310,275) size 8x8 [transform={m=((1.00,0.00)(0.00,1.00)) t=(30.00,0.00)}] [fill={[type=SOLID] [color=#CCCCCC]}] [x=10.00] [y=0.00] [width=8.00] [height=8.00]
          RenderSVGContainer {use} at (390,275) size 38x8
            RenderSVGContainer {g} at (390,275) size 38x8 [transform={m=((1.00,0.00)(0.00,1.00)) t=(220.00,0.00)}]
              RenderSVGContainer {g} at (390,275) size 38x8
                RenderSVGPath {rect} at (390,275) size 8x8 [fill={[type=SOLID] [color=#CCCCCC]}] [x=10.00] [y=0.00] [width=8.00] [height=8.00]
                RenderSVGPath {rect} at (420,275) size 8x8 [transform={m=((1.00,0.00)(0.00,1.00)) t=(30.00,0.00)}] [fill={[type=SOLID] [color=#CCCCCC]}] [x=10.00] [y=0.00] [width=8.00] [height=8.00]
          RenderSVGPath {rect} at (200,275) size 8x8 [transform={m=((1.00,0.00)(0.00,1.00)) t=(30.00,0.00)}] [fill={[type=SOLID] [color=#FFA500]}] [x=10.00] [y=0.00] [width=8.00] [height=8.00]
          RenderSVGContainer {g} at (310,275) size 8x8 [transform={m=((1.00,0.00)(0.00,1.00)) t=(110.00,0.00)}]
            RenderSVGPath {rect} at (310,275) size 8x8 [transform={m=((1.00,0.00)(0.00,1.00)) t=(30.00,0.00)}] [fill={[type=SOLID] [color=#FFA500]}] [x=10.00] [y=0.00] [width=8.00] [height=8.00]
          RenderSVGContainer {a} at (420,275) size 8x8 [transform={m=((1.00,0.00)(0.00,1.00)) t=(220.00,0.00)}]
            RenderSVGPath {rect} at (420,275) size 8x8 [transform={m=((1.00,0.00)(0.00,1.00)) t=(30.00,0.00)}] [fill={[type=SOLID] [color=#FFA500]}] [x=10.00] [y=0.00] [width=8.00] [height=8.00]
