layer at (0,0) size 800x600
  RenderView at (0,0) size 800x600
layer at (0,0) size 800x600
  RenderSVGRoot {svg} at (2,44) size 439x279
    RenderSVGText {text} at (2,44) size 342x79 contains 1 chunk(s)
      RenderSVGTSpan {tspan} at (0,0) size 342x79
        RenderSVGInlineText {#text} at (0,0) size 342x79
          chunk 1 text run 1 at (25.00,100.00) startOffset 0 endOffset 1 width 33.00: "R"
          chunk 1 text run 2 at (58.00,100.00) startOffset 1 endOffset 2 width 26.00: "o"
          chunk 1 text run 3 at (84.00,100.00) startOffset 2 endOffset 3 width 15.00: "t"
          chunk 1 text run 4 at (99.00,100.00) startOffset 3 endOffset 4 width 22.00: "a"
          chunk 1 text run 5 at (121.00,100.00) startOffset 4 endOffset 5 width 15.00: "t"
          chunk 1 text run 6 at (136.00,100.00) startOffset 5 endOffset 6 width 22.00: "e"
          chunk 1 text run 7 at (158.00,100.00) startOffset 6 endOffset 7 width 25.00: "d"
          chunk 1 text run 8 at (183.00,100.00) startOffset 7 endOffset 8 width 13.00: " "
          chunk 1 text run 9 at (196.00,100.00) startOffset 8 endOffset 9 width 25.00: "g"
          chunk 1 text run 10 at (221.00,100.00) startOffset 9 endOffset 10 width 12.00: "l"
          chunk 1 text run 11 at (233.00,100.00) startOffset 10 endOffset 11 width 23.00: "y"
          chunk 1 text run 12 at (256.00,100.00) startOffset 11 endOffset 12 width 25.00: "p"
          chunk 1 text run 13 at (281.00,100.00) startOffset 12 endOffset 13 width 24.00: "h"
          chunk 1 text run 14 at (305.00,100.00) startOffset 13 endOffset 14 width 19.00: "s"
    RenderSVGText {text} at (25,155) size 405x72 contains 1 chunk(s)
      RenderSVGTSpan {tspan} at (0,0) size 405x72
        RenderSVGInlineText {#text} at (0,0) size 122x57
          chunk 1 text run 1 at (25.00,200.00) startOffset 0 endOffset 5 width 122.00: "More "
        RenderSVGTSpan {tspan} at (0,0) size 171x71
          RenderSVGInlineText {#text} at (118,1) size 171x71
            chunk 1 text run 1 at (147.00,200.00) startOffset 0 endOffset 1 width 17.00: "r"
            chunk 1 text run 2 at (164.00,200.00) startOffset 1 endOffset 2 width 26.00: "o"
            chunk 1 text run 3 at (190.00,200.00) startOffset 2 endOffset 3 width 15.00: "t"
            chunk 1 text run 4 at (205.00,200.00) startOffset 3 endOffset 4 width 22.00: "a"
            chunk 1 text run 5 at (227.00,200.00) startOffset 4 endOffset 5 width 15.00: "t"
            chunk 1 text run 6 at (242.00,200.00) startOffset 5 endOffset 6 width 22.00: "e"
            chunk 1 text run 7 at (264.00,200.00) startOffset 6 endOffset 7 width 25.00: "d"
        RenderSVGInlineText {#text} at (264,0) size 141x57
          chunk 1 text run 1 at (289.00,200.00) startOffset 0 endOffset 7 width 141.00: " glyphs"
    RenderSVGText {text} at (21,256) size 420x67 contains 1 chunk(s)
      RenderSVGInlineText {#text} at (0,0) size 420x67
        chunk 1 text run 1 at (25.00,300.00) startOffset 0 endOffset 1 width 44.00: "M"
        chunk 1 text run 2 at (69.00,300.00) startOffset 1 endOffset 2 width 26.00: "o"
        chunk 1 text run 3 at (95.00,300.00) startOffset 2 endOffset 3 width 17.00: "r"
        chunk 1 text run 4 at (112.00,300.00) startOffset 3 endOffset 4 width 22.00: "e"
        chunk 1 text run 5 at (134.00,300.00) startOffset 4 endOffset 5 width 13.00: " "
        chunk 1 text run 6 at (147.00,300.00) startOffset 5 endOffset 6 width 17.00: "r"
        chunk 1 text run 7 at (164.00,300.00) startOffset 6 endOffset 7 width 26.00: "o"
        chunk 1 text run 8 at (190.00,300.00) startOffset 7 endOffset 8 width 15.00: "t"
        chunk 1 text run 9 at (205.00,300.00) startOffset 8 endOffset 9 width 22.00: "a"
        chunk 1 text run 10 at (227.00,300.00) startOffset 9 endOffset 10 width 15.00: "t"
        chunk 1 text run 11 at (242.00,300.00) startOffset 10 endOffset 11 width 22.00: "e"
        chunk 1 text run 12 at (264.00,300.00) startOffset 11 endOffset 12 width 25.00: "d"
        chunk 1 text run 13 at (289.00,300.00) startOffset 12 endOffset 13 width 13.00: " "
        chunk 1 text run 14 at (302.00,300.00) startOffset 13 endOffset 14 width 25.00: "g"
        chunk 1 text run 15 at (327.00,300.00) startOffset 14 endOffset 15 width 12.00: "l"
        chunk 1 text run 16 at (339.00,300.00) startOffset 15 endOffset 16 width 23.00: "y"
        chunk 1 text run 17 at (362.00,300.00) startOffset 16 endOffset 17 width 25.00: "p"
        chunk 1 text run 18 at (387.00,300.00) startOffset 17 endOffset 18 width 24.00: "h"
        chunk 1 text run 19 at (411.00,300.00) startOffset 18 endOffset 19 width 19.00: "s"
