layer at (0,0) size 800x600
  RenderView at (0,0) size 800x600
layer at (0,0) size 800x194
  RenderBlock {HTML} at (0,0) size 800x194
    RenderBody {BODY} at (8,16) size 784x162
      RenderBlock {P} at (0,0) size 784x22
        RenderText {#text} at (0,0) size 258x22
          text run at (0,0) width 258: "The next two bars should be identical:"
      RenderBlock {DIV} at (16,38) size 192x54 [color=#FFFF00] [bgcolor=#000080]
        RenderText {#text} at (16,16) size 42x22
          text run at (16,16) width 42: "TEST"
      RenderBlock {DIV} at (16,108) size 192x54 [color=#FFFF00] [bgcolor=#000080] [border: (16px solid #000080)]
        RenderText {#text} at (16,16) size 42x22
          text run at (16,16) width 42: "TEST"
