layer at (0,0) size 800x600
  RenderView at (0,0) size 800x600
layer at (0,0) size 800x600
  RenderSVGRoot {svg} at (0,0) size 150x66
    RenderSVGHiddenContainer {defs} at (0,0) size 0x0
      RenderSVGResourceFilter {filter} [id="gblur"] [filterUnits=objectBoundingBox] [primitiveUnits=userSpaceOnUse]
        [feGaussianBlur stdDeviation="0.00, 0.00"]
          [SourceGraphic]
    RenderSVGContainer {g} at (0,0) size 96x44 [opacity=0.50]
      RenderSVGPath {rect} at (0,0) size 96x44 [fill={[type=SOLID] [color=#008000]}] [x=0.00] [y=0.00] [width=87.00] [height=40.00]
        [filter="gblur"] RenderSVGResourceFilter {filter} at (-8.70,-4) size 104.40x48
    RenderSVGText {text} at (0,44) size 150x22 contains 1 chunk(s)
      RenderSVGInlineText {#text} at (0,0) size 150x22
        chunk 1 text run 1 at (0.00,60.00) startOffset 0 endOffset 22 width 150.00: "This should not crash."
