layer at (0,0) size 800x600
  RenderView at (0,0) size 800x600
layer at (0,0) size 800x600
  RenderSVGRoot {svg} at (79,226) size 651x148
    RenderSVGHiddenContainer {defs} at (0,0) size 0x0
      RenderSVGPath {path} at (80,226) size 640x148 [fill={[type=SOLID] [color=#000000]}] [data="M 100 200 C 200 100 300 0 400 100 C 500 200 600 300 700 200 C 800 100 900 100 900 100"]
    RenderSVGContainer {use} at (79,226) size 641x148
      RenderSVGContainer {g} at (79,226) size 641x148
        RenderSVGPath {path} at (79,226) size 641x148 [stroke={[type=SOLID] [color=#FF0000]}] [data="M 100 200 C 200 100 300 0 400 100 C 500 200 600 300 700 200 C 800 100 900 100 900 100"]
    RenderSVGContainer {g} at (80,246) size 650x100
      RenderSVGText {text} at (100,183) size 12x24 contains 1 chunk(s)
        RenderSVGInlineText {#text} at (0,0) size 12x24
          chunk 1 text run 1 at (100.00,200.00) startOffset 0 endOffset 1 width 11.25: "A"
      RenderSVGText {text} at (482,162) size 13x23 contains 1 chunk(s)
        RenderSVGInlineText {#text} at (0,0) size 13x23
          chunk 1 text run 1 at (482.80,178.59) startOffset 0 endOffset 1 width 11.25: "B"
      RenderSVGText {text} at (900,83) size 12x24 contains 1 chunk(s)
        RenderSVGInlineText {#text} at (0,0) size 12x24
          chunk 1 text run 1 at (900.00,100.00) startOffset 0 endOffset 1 width 11.25: "C"
