layer at (0,0) size 800x600
  RenderView at (0,0) size 800x600
layer at (0,0) size 800x600
  RenderBlock {HTML} at (0,0) size 800x600
    RenderBody {BODY} at (8,8) size 784x584
      RenderBlock {P} at (0,0) size 784x44
        RenderText {#text} at (0,0) size 774x44
          text run at (0,0) width 297: "You should see a green 100x100 box below. "
          text run at (297,0) width 477: "If you see a red box, then the inner block is not properly growing to fill"
          text run at (0,22) width 208: "the height of the enclosing box."
      RenderFlexibleBox {DIV} at (0,60) size 100x100 [bgcolor=#FF0000]
        RenderBlock {DIV} at (0,0) size 100x100 [bgcolor=#008000]
