layer at (0,0) size 800x600
  RenderView at (0,0) size 800x600
layer at (0,0) size 800x600
  RenderBlock {HTML} at (0,0) size 800x600
    RenderBody {BODY} at (8,8) size 784x584
      RenderDetails {DETAILS} at (0,0) size 784x22
        RenderSummary {SUMMARY} at (0,0) size 784x22
          RenderDetailsMarker {DIV} at (0,6) size 10x10: right
          RenderText {#text} at (16,0) size 40x22
            text run at (16,0) width 40: "new 2"
