layer at (0,0) size 800x600
  RenderView at (0,0) size 800x600
layer at (0,0) size 800x600
  RenderBlock {HTML} at (0,0) size 800x600
    RenderBody {BODY} at (8,8) size 784x576
      RenderBlock {P} at (0,0) size 784x22
        RenderText {#text} at (0,0) size 219x22
          text run at (0,0) width 219: "Should say \"SUCCESS\" below:"
      RenderBlock {DIV} at (0,38) size 784x88 [border: (2px solid #FF0000)]
        RenderBlock {DIV} at (2,2) size 780x50 [border: (10px solid #008000)]
          RenderBlock {DIV} at (10,10) size 760x14 [border: (2px solid #0000FF)]
        RenderTable {TABLE} at (2,52) size 4x0
        RenderTable {TABLE} at (2,52) size 51x34 [border: (2px outset #808080)]
          RenderTableSection {TBODY} at (2,2) size 47x30
            RenderTableRow {TR} at (0,2) size 47x26
              RenderTableCell {TD} at (2,2) size 43x26 [border: (1px inset #808080)] [r=0 c=0 rs=1 cs=1]
                RenderText {#text} at (2,2) size 39x22
                  text run at (2,2) width 39: "Table"
      RenderBlock {P} at (0,142) size 784x22
        RenderText {#text} at (0,0) size 74x22
          text run at (0,0) width 74: "SUCCESS"
