layer at (0,0) size 800x600
  RenderView at (0,0) size 800x600
layer at (0,0) size 400x400
  RenderSVGRoot {svg} at (0,0) size 400x400
    RenderSVGText {text} at (10,10) size 50x7 contains 1 chunk(s)
      RenderSVGInlineText {#text} at (0,0) size 50x7
        chunk 1 text run 1 at (10.00,15.00) startOffset 0 endOffset 21 width 49.25: "SVG Performance test."
    RenderSVGText {text} at (10,90) size 35x7 contains 1 chunk(s)
      RenderSVGInlineText {#text} at (0,0) size 35x7
        chunk 1 text run 1 at (10.00,95.00) startOffset 0 endOffset 17 width 35.00: "Test not started."
    RenderSVGPath {rect} at (0,0) size 400x400 [stroke={[type=SOLID] [color=#000000]}] [x=0.00] [y=0.00] [width=100.00] [height=100.00]
    RenderSVGResourceLinearGradient {linearGradient} [id="gradient"] [gradientUnits=objectBoundingBox] [start=(0,0)] [end=(1,0)]
      RenderSVGGradientStop {stop} [offset=0.00] [color=#0000FF]
      RenderSVGGradientStop {stop} [offset=0.10] [color=#FF6600]
      RenderSVGGradientStop {stop} [offset=0.90] [color=#FFFF66]
      RenderSVGGradientStop {stop} [offset=1.00] [color=#0000FF]
