layer at (0,0) size 800x600
  RenderView at (0,0) size 800x600
layer at (0,0) size 800x600
  RenderSVGRoot {svg} at (0,0) size 300x400
    RenderSVGForeignObject {foreignObject} at (0,0) size 300x100
      RenderSVGRoot {svg} at (0,5) size 33x19
        RenderSVGContainer {g} at (0,5) size 33x19
          RenderSVGText {text} at (0,5) size 33x19 contains 1 chunk(s)
            RenderSVGInlineText {#text} at (0,0) size 33x19
              chunk 1 text run 1 at (0.00,20.00) startOffset 0 endOffset 5 width 33.00: "crash"
      RenderText {#text} at (0,0) size 0x0
    RenderSVGForeignObject {foreignObject} at (0,50) size 300x100
      RenderSVGRoot {svg} at (0,50) size 100x100
        RenderSVGPath {rect} at (0,50) size 100x100 [fill={[type=SOLID] [color=#008000]}] [x=0.00] [y=0.00] [width=100.00] [height=100.00]
      RenderText {#text} at (0,0) size 0x0
    RenderSVGForeignObject {foreignObject} at (0,150) size 300x100
      RenderSVGRoot {svg} at (0,150) size 100x100
        RenderSVGPath {rect} at (0,150) size 100x100 [fill={[type=SOLID] [color=#008000]}] [x=0.00] [y=0.00] [width=100.00] [height=100.00]
      RenderText {#text} at (0,0) size 0x0
