layer at (0,0) size 480x360
  RenderView at (0,0) size 480x360
layer at (0,0) size 480x360
  RenderSVGRoot {svg} at (0,0) size 480x360
    RenderSVGContainer {g} at (10,50) size 420x245 [transform={m=((1.00,0.00)(0.00,1.00)) t=(0.00,30.00)}]
      RenderSVGContainer {g} at (10,50) size 420x245
        RenderSVGText {text} at (10,20) size 44x12 contains 1 chunk(s)
          RenderSVGInlineText {#text} at (0,0) size 44x12
            chunk 1 text run 1 at (10.00,30.00) startOffset 0 endOffset 13 width 44.00: "Raster to fit"
        RenderSVGContainer {g} at (20,70) size 40x40 [transform={m=((1.00,0.00)(0.00,1.00)) t=(20.00,40.00)}]
          RenderSVGImage {image} at (20,70) size 40x40
        RenderSVGText {text} at (10,100) size 43x12 contains 1 chunk(s)
          RenderSVGInlineText {#text} at (0,0) size 43x12
            chunk 1 text run 1 at (10.00,110.00) startOffset 0 endOffset 10 width 43.00: "Viewport 1"
        RenderSVGContainer {g} at (10,150) size 50x30 [transform={m=((1.00,0.00)(0.00,1.00)) t=(10.00,120.00)}]
          RenderSVGPath {rect} at (10,150) size 50x30 [stroke={[type=SOLID] [color=#0000FF]}] [x=0.50] [y=0.50] [width=49.00] [height=29.00]
        RenderSVGText {text} at (10,170) size 43x12 contains 1 chunk(s)
          RenderSVGInlineText {#text} at (0,0) size 43x12
            chunk 1 text run 1 at (10.00,180.00) startOffset 0 endOffset 10 width 43.00: "Viewport 2"
        RenderSVGContainer {g} at (20,220) size 30x60 [transform={m=((1.00,0.00)(0.00,1.00)) t=(20.00,190.00)}]
          RenderSVGPath {rect} at (20,220) size 30x60 [stroke={[type=SOLID] [color=#0000FF]}] [x=0.50] [y=0.50] [width=29.00] [height=59.00]
        RenderSVGContainer {g} at (120,50) size 120x110 [transform={m=((1.00,0.00)(0.00,1.00)) t=(120.00,50.00)}]
          RenderSVGText {text} at (0,-30) size 111x12 contains 1 chunk(s)
            RenderSVGInlineText {#text} at (0,0) size 111x12
              chunk 1 text run 1 at (0.00,-20.00) startOffset 0 endOffset 36 width 111.00: "---------- meet --------------------"
          RenderSVGContainer {g} at (120,65) size 50x45
            RenderSVGText {text} at (0,-15) size 25x12 contains 1 chunk(s)
              RenderSVGInlineText {#text} at (0,0) size 25x12
                chunk 1 text run 1 at (0.00,-5.00) startOffset 0 endOffset 5 width 25.00: "xMin*"
            RenderSVGPath {rect} at (120,80) size 50x30 [stroke={[type=SOLID] [color=#0000FF]}] [x=0.50] [y=0.50] [width=49.00] [height=29.00]
            RenderSVGImage {image} at (120,80) size 50x30
          RenderSVGContainer {g} at (190,65) size 50x45 [transform={m=((1.00,0.00)(0.00,1.00)) t=(70.00,0.00)}]
            RenderSVGText {text} at (0,-15) size 25x12 contains 1 chunk(s)
              RenderSVGInlineText {#text} at (0,0) size 25x12
                chunk 1 text run 1 at (0.00,-5.00) startOffset 0 endOffset 5 width 25.00: "xMid*"
            RenderSVGPath {rect} at (190,80) size 50x30 [stroke={[type=SOLID] [color=#0000FF]}] [x=0.50] [y=0.50] [width=49.00] [height=29.00]
            RenderSVGImage {image} at (190,80) size 50x30
          RenderSVGContainer {g} at (120,115) size 50x45 [transform={m=((1.00,0.00)(0.00,1.00)) t=(0.00,50.00)}]
            RenderSVGText {text} at (0,-15) size 25x12 contains 1 chunk(s)
              RenderSVGInlineText {#text} at (0,0) size 25x12
                chunk 1 text run 1 at (0.00,-5.00) startOffset 0 endOffset 5 width 25.00: "xMax*"
            RenderSVGPath {rect} at (120,130) size 50x30 [stroke={[type=SOLID] [color=#0000FF]}] [x=0.50] [y=0.50] [width=49.00] [height=29.00]
            RenderSVGImage {image} at (120,130) size 50x30
        RenderSVGContainer {g} at (300,50) size 130x90 [transform={m=((1.00,0.00)(0.00,1.00)) t=(300.00,50.00)}]
          RenderSVGText {text} at (0,-30) size 123x12 contains 1 chunk(s)
            RenderSVGInlineText {#text} at (0,0) size 123x12
              chunk 1 text run 1 at (0.00,-20.00) startOffset 0 endOffset 40 width 123.00: "---------- meet ------------------------"
          RenderSVGContainer {g} at (300,65) size 30x75
            RenderSVGText {text} at (0,-15) size 28x12 contains 1 chunk(s)
              RenderSVGInlineText {#text} at (0,0) size 28x12
                chunk 1 text run 1 at (0.00,-5.00) startOffset 0 endOffset 5 width 28.00: "*YMin"
            RenderSVGPath {rect} at (300,80) size 30x60 [stroke={[type=SOLID] [color=#0000FF]}] [x=0.50] [y=0.50] [width=29.00] [height=59.00]
            RenderSVGImage {image} at (300,80) size 30x60
          RenderSVGContainer {g} at (350,65) size 30x75 [transform={m=((1.00,0.00)(0.00,1.00)) t=(50.00,0.00)}]
            RenderSVGText {text} at (0,-15) size 28x12 contains 1 chunk(s)
              RenderSVGInlineText {#text} at (0,0) size 28x12
                chunk 1 text run 1 at (0.00,-5.00) startOffset 0 endOffset 5 width 28.00: "*YMid"
            RenderSVGPath {rect} at (350,80) size 30x60 [stroke={[type=SOLID] [color=#0000FF]}] [x=0.50] [y=0.50] [width=29.00] [height=59.00]
            RenderSVGImage {image} at (350,80) size 30x60
          RenderSVGContainer {g} at (400,65) size 30x75 [transform={m=((1.00,0.00)(0.00,1.00)) t=(100.00,0.00)}]
            RenderSVGText {text} at (0,-15) size 28x12 contains 1 chunk(s)
              RenderSVGInlineText {#text} at (0,0) size 28x12
                chunk 1 text run 1 at (0.00,-5.00) startOffset 0 endOffset 5 width 28.00: "*YMax"
            RenderSVGPath {rect} at (400,80) size 30x60 [stroke={[type=SOLID] [color=#0000FF]}] [x=0.50] [y=0.50] [width=29.00] [height=59.00]
            RenderSVGImage {image} at (400,80) size 30x60
        RenderSVGContainer {g} at (120,185) size 130x90 [transform={m=((1.00,0.00)(0.00,1.00)) t=(120.00,185.00)}]
          RenderSVGText {text} at (0,-30) size 127x12 contains 1 chunk(s)
            RenderSVGInlineText {#text} at (0,0) size 127x12
              chunk 1 text run 1 at (0.00,-20.00) startOffset 0 endOffset 42 width 127.00: "---------- slice -------------------------"
          RenderSVGContainer {g} at (120,200) size 30x75
            RenderSVGText {text} at (0,-15) size 25x12 contains 1 chunk(s)
              RenderSVGInlineText {#text} at (0,0) size 25x12
                chunk 1 text run 1 at (0.00,-5.00) startOffset 0 endOffset 5 width 25.00: "xMin*"
            RenderSVGPath {rect} at (120,215) size 30x60 [stroke={[type=SOLID] [color=#0000FF]}] [x=0.50] [y=0.50] [width=29.00] [height=59.00]
            RenderSVGImage {image} at (120,215) size 30x60
          RenderSVGContainer {g} at (170,200) size 30x75 [transform={m=((1.00,0.00)(0.00,1.00)) t=(50.00,0.00)}]
            RenderSVGText {text} at (0,-15) size 25x12 contains 1 chunk(s)
              RenderSVGInlineText {#text} at (0,0) size 25x12
                chunk 1 text run 1 at (0.00,-5.00) startOffset 0 endOffset 5 width 25.00: "xMid*"
            RenderSVGPath {rect} at (170,215) size 30x60 [stroke={[type=SOLID] [color=#0000FF]}] [x=0.50] [y=0.50] [width=29.00] [height=59.00]
            RenderSVGImage {image} at (170,215) size 30x60
          RenderSVGContainer {g} at (220,200) size 30x75 [transform={m=((1.00,0.00)(0.00,1.00)) t=(100.00,0.00)}]
            RenderSVGText {text} at (0,-15) size 25x12 contains 1 chunk(s)
              RenderSVGInlineText {#text} at (0,0) size 25x12
                chunk 1 text run 1 at (0.00,-5.00) startOffset 0 endOffset 5 width 25.00: "xMax*"
            RenderSVGPath {rect} at (220,215) size 30x60 [stroke={[type=SOLID] [color=#0000FF]}] [x=0.50] [y=0.50] [width=29.00] [height=59.00]
            RenderSVGImage {image} at (220,215) size 30x60
        RenderSVGContainer {g} at (300,185) size 120x110 [transform={m=((1.00,0.00)(0.00,1.00)) t=(300.00,185.00)}]
          RenderSVGText {text} at (0,-30) size 115x12 contains 1 chunk(s)
            RenderSVGInlineText {#text} at (0,0) size 115x12
              chunk 1 text run 1 at (0.00,-20.00) startOffset 0 endOffset 38 width 115.00: "---------- slice ---------------------"
          RenderSVGContainer {g} at (300,200) size 50x45
            RenderSVGText {text} at (0,-15) size 28x12 contains 1 chunk(s)
              RenderSVGInlineText {#text} at (0,0) size 28x12
                chunk 1 text run 1 at (0.00,-5.00) startOffset 0 endOffset 5 width 28.00: "*YMin"
            RenderSVGPath {rect} at (300,215) size 50x30 [stroke={[type=SOLID] [color=#0000FF]}] [x=0.50] [y=0.50] [width=49.00] [height=29.00]
            RenderSVGImage {image} at (300,215) size 50x30
          RenderSVGContainer {g} at (370,200) size 50x45 [transform={m=((1.00,0.00)(0.00,1.00)) t=(70.00,0.00)}]
            RenderSVGText {text} at (0,-15) size 28x12 contains 1 chunk(s)
              RenderSVGInlineText {#text} at (0,0) size 28x12
                chunk 1 text run 1 at (0.00,-5.00) startOffset 0 endOffset 5 width 28.00: "*YMid"
            RenderSVGPath {rect} at (370,215) size 50x30 [stroke={[type=SOLID] [color=#0000FF]}] [x=0.50] [y=0.50] [width=49.00] [height=29.00]
            RenderSVGImage {image} at (370,215) size 50x30
          RenderSVGContainer {g} at (300,250) size 50x45 [transform={m=((1.00,0.00)(0.00,1.00)) t=(0.00,50.00)}]
            RenderSVGText {text} at (0,-15) size 28x12 contains 1 chunk(s)
              RenderSVGInlineText {#text} at (0,0) size 28x12
                chunk 1 text run 1 at (0.00,-5.00) startOffset 0 endOffset 5 width 28.00: "*YMax"
            RenderSVGPath {rect} at (300,265) size 50x30 [stroke={[type=SOLID] [color=#0000FF]}] [x=0.50] [y=0.50] [width=49.00] [height=29.00]
            RenderSVGImage {image} at (300,265) size 50x30
    RenderSVGText {text} at (10,304) size 261x46 contains 1 chunk(s)
      RenderSVGInlineText {#text} at (0,0) size 261x46
        chunk 1 text run 1 at (10.00,340.00) startOffset 0 endOffset 16 width 261.00: "$Revision: 1.5 $"
    RenderSVGPath {rect} at (0,0) size 480x360 [stroke={[type=SOLID] [color=#000000]}] [x=1.00] [y=1.00] [width=478.00] [height=358.00]
