layer at (0,0) size 480x360
  RenderView at (0,0) size 480x360
layer at (0,0) size 480x360
  RenderSVGRoot {svg} at (0,0) size 480x360
    RenderSVGContainer {g} at (50,73) size 358x174
      RenderSVGContainer {g} at (50,73) size 358x174
        RenderSVGText {text} at (50,73) size 83x34 contains 1 chunk(s)
          RenderSVGInline {a} at (0,0) size 83x34
            RenderSVGInlineText {#text} at (0,0) size 83x34
              chunk 1 text run 1 at (50.00,100.00) startOffset 0 endOffset 7 width 83.00: "Visited"
        RenderSVGText {text} at (250,73) size 112x34 contains 1 chunk(s)
          RenderSVGInline {a} at (0,0) size 112x34
            RenderSVGInlineText {#text} at (0,0) size 112x34
              chunk 1 text run 1 at (250.00,100.00) startOffset 0 endOffset 9 width 112.00: "Unvisited"
        RenderSVGText {text} at (50,143) size 118x34 contains 1 chunk(s)
          RenderSVGInline {a} at (0,0) size 118x34
            RenderSVGInlineText {#text} at (0,0) size 118x34
              chunk 1 text run 1 at (50.00,170.00) startOffset 0 endOffset 8 width 118.00: "Hover me"
        RenderSVGText {text} at (250,143) size 158x34 contains 1 chunk(s)
          RenderSVGInlineText {#text} at (0,0) size 158x34
            chunk 1 text run 1 at (250.00,170.00) startOffset 0 endOffset 12 width 158.00: "And me, too!"
        RenderSVGText {text} at (150,213) size 115x34 contains 1 chunk(s)
          RenderSVGInlineText {#text} at (0,0) size 115x34
            chunk 1 text run 1 at (150.00,240.00) startOffset 0 endOffset 9 width 115.00: "Select me"
    RenderSVGText {text} at (10,304) size 261x46 contains 1 chunk(s)
      RenderSVGInlineText {#text} at (0,0) size 261x46
        chunk 1 text run 1 at (10.00,340.00) startOffset 0 endOffset 16 width 261.00: "$Revision: 1.5 $"
    RenderSVGPath {rect} at (0,0) size 480x360 [stroke={[type=SOLID] [color=#000000]}] [x=1.00] [y=1.00] [width=478.00] [height=358.00]
